digraph G {

    edge [dir="none"]
    node [ fontname = "Helvetica"; fontsize = 18; ]

    N42 [ label = "42" ]

    N13 [ label = "13" ]
    N42 -> N13
    N37 [ label = "37" ]
    N42 -> N37

    E1 [ label = "Nil" ]
    N13 -> E1
    E2 [ label = "Nil" ]
    N13 -> E2
    E3 [ label = "Nil" ]
    N37 -> E3
    E4 [ label = "Nil" ]
    N37 -> E4

}

