
graph {

    node [shape=plaintext];

    A13 [ label = "13" ];
    A2  [ label = "2" ];
    A0 [ label = "." ];
    A12 [ label = "12" ];
    A42 [ label = "42" ];
    A37 [ label = "37" ];
    A51 [ label = "51" ];

    A13 -- A2;
    A13 -- A42;
    A2 -- A0;
    A2 -- A12;
    A42 -- A37;
    A42 -- A51;

}



