graph {

    node [shape=plaintext];

    A [ label = "12" ];

    Ag [ label = "3" ];
    Ad [ label = "13" ];
    A -- Ag;
    A -- Ad;

    Agg [ label = " " ];
    Agd [ label = "7" ];
    Ag -- Agg;
    Ag -- Agd;

    Adg [ label = "12" ];
    Add [ label = "42" ];
    Ad -- Adg;
    Ad -- Add;

}

