graph {

    node [shape=plaintext];

    A [ label = "ExprAdd" ];

    Ag [ label = "ExprMul" ];
    Ad [ label = "ExprVal 8" ];
    A -- Ag;
    A -- Ad;

    Agg [ label = "ExprVal 2" ];
    Agd [ label = "ExprVal 5" ];
    Ag -- Agg;
    Ag -- Agd;

}

