graph {

    node [shape=plaintext];

    A [ label = "7" ];

    Ag [ label = "2" ];
    Ad [ label = "37" ];
    A -- Ag;
    A -- Ad;

    Agg [ label = "_" ];
    Agd [ label = "_" ];
    Ag -- Agg;
    Ag -- Agd;

    Adg [ label = "13" ];
    Add [ label = "42" ];
    Ad -- Adg;
    Ad -- Add;

    Adgg [ label = "_" ];
    Adgd [ label = "_" ];
    Adg -- Adgg;
    Adg -- Adgd;

    Addg [ label = "_" ];
    Addd [ label = "_" ];
    Add -- Addg;
    Add -- Addd;

}

