<?xml version="1.0" encoding="UTF-8" standalone="no"?>
<!-- Created with Inkscape (http://www.inkscape.org/) -->

<svg
   xmlns:dc="http://purl.org/dc/elements/1.1/"
   xmlns:cc="http://creativecommons.org/ns#"
   xmlns:rdf="http://www.w3.org/1999/02/22-rdf-syntax-ns#"
   xmlns:svg="http://www.w3.org/2000/svg"
   xmlns="http://www.w3.org/2000/svg"
   xmlns:xlink="http://www.w3.org/1999/xlink"
   xmlns:sodipodi="http://sodipodi.sourceforge.net/DTD/sodipodi-0.dtd"
   xmlns:inkscape="http://www.inkscape.org/namespaces/inkscape"
   id="svg2"
   sodipodi:version="0.32"
   inkscape:version="0.92.4 (5da689c313, 2019-01-14)"
   width="800"
   height="800"
   xml:space="preserve"
   sodipodi:docname="pfa-mcpi.svg"
   inkscape:output_extension="org.inkscape.output.svg.inkscape"
   version="1.0"
   inkscape:export-filename="/home/jd/depots/gitlab/juliendehos/juliendehos.gitlab.io/source/posts/2020-pfa/files/pfa-mcpi.png"
   inkscape:export-xdpi="96"
   inkscape:export-ydpi="96"><metadata
   id="metadata7"><rdf:RDF><cc:Work
       rdf:about=""><dc:format>image/svg+xml</dc:format><dc:type
         rdf:resource="http://purl.org/dc/dcmitype/StillImage" /><dc:title></dc:title></cc:Work></rdf:RDF></metadata><defs
   id="defs5"><marker
     inkscape:stockid="DotS"
     orient="auto"
     refY="0"
     refX="0"
     id="DotS"
     style="overflow:visible"><path
       id="path11513"
       d="m -2.5,-1 c 0,2.76 -2.24,5 -5,5 -2.76,0 -5,-2.24 -5,-5 0,-2.76 2.24,-5 5,-5 2.76,0 5,2.24 5,5 z"
       style="fill-rule:evenodd;stroke:#000000;stroke-width:1.00000003pt;marker-start:none;marker-end:none"
       transform="matrix(0.2,0,0,0.2,1.48,0.2)"
       inkscape:connector-curvature="0" /></marker><marker
     inkscape:stockid="DotM"
     orient="auto"
     refY="0"
     refX="0"
     id="DotM"
     style="overflow:visible"><path
       id="path11510"
       d="m -2.5,-1 c 0,2.76 -2.24,5 -5,5 -2.76,0 -5,-2.24 -5,-5 0,-2.76 2.24,-5 5,-5 2.76,0 5,2.24 5,5 z"
       style="fill-rule:evenodd;stroke:#000000;stroke-width:1.00000003pt;marker-start:none;marker-end:none"
       transform="matrix(0.4,0,0,0.4,2.96,0.4)"
       inkscape:connector-curvature="0" /></marker></defs><sodipodi:namedview
   inkscape:window-height="835"
   inkscape:window-width="1182"
   inkscape:pageshadow="2"
   inkscape:pageopacity="0.0"
   guidetolerance="10000"
   gridtolerance="10000"
   objecttolerance="50"
   borderopacity="1.0"
   bordercolor="#666666"
   pagecolor="#ffffff"
   id="base"
   showgrid="false"
   inkscape:zoom="0.76124266"
   inkscape:cx="119.06868"
   inkscape:cy="375.82481"
   inkscape:window-x="0"
   inkscape:window-y="31"
   inkscape:current-layer="svg2"
   inkscape:object-nodes="true"
   inkscape:object-paths="false"
   inkscape:snap-bbox="false"
   inkscape:bbox-nodes="true"
   inkscape:bbox-paths="true"
   inkscape:snap-nodes="true"
   inkscape:snap-intersection-grid-guide="false"
   inkscape:snap-global="true"
   inkscape:snap-center="true"
   inkscape:window-maximized="0" /><path
   sodipodi:nodetypes="cccc"
   id="path12949"
   d="m 780.84568,769.18175 -745.48643,-3e-5 0.0023,-754.334728 c 409.68139,0 745.48412,339.305278 745.48412,754.334758 z"
   style="display:inline;overflow:visible;visibility:visible;opacity:1;fill:#ff0000;fill-opacity:0.44092222;fill-rule:evenodd;stroke:none;stroke-width:0.8638463;stroke-linecap:butt;stroke-linejoin:round;stroke-miterlimit:10.43299961;stroke-dasharray:none;stroke-dashoffset:5.5;stroke-opacity:1;marker:none;marker-start:none;marker-mid:none;marker-end:none;enable-background:accumulate"
   inkscape:connector-curvature="0" /><use
   height="743.75"
   width="1052.5"
   id="use12947"
   xlink:href="#path12743"
   inkscape:tiled-clone-of="#path12743"
   y="0"
   x="0"
   transform="translate(589.48555,111.48284)" /><path
   sodipodi:nodetypes="cc"
   id="path9807"
   d="M 35.35925,14.847002 V 769.18172"
   style="fill:none;fill-opacity:0.75;fill-rule:evenodd;stroke:#000000;stroke-width:0.64788473;stroke-linecap:butt;stroke-linejoin:miter;stroke-miterlimit:4;stroke-dasharray:none;stroke-opacity:1"
   inkscape:connector-curvature="0" /><use
   x="0"
   y="0"
   xlink:href="#path9807"
   id="use9895"
   transform="translate(149.24607,-0.12498092)"
   width="1052.5"
   height="743.75" /><use
   height="743.75"
   width="1052.5"
   transform="translate(298.49215)"
   id="use10667"
   xlink:href="#path9807"
   y="0"
   x="0" /><use
   x="0"
   y="0"
   xlink:href="#path9807"
   id="use10669"
   transform="translate(447.73823)"
   width="1052.5"
   height="743.75" /><use
   height="743.75"
   width="1052.5"
   transform="translate(596.98431)"
   id="use10671"
   xlink:href="#path9807"
   y="0"
   x="0" /><use
   x="0"
   y="0"
   xlink:href="#path9807"
   id="use10673"
   transform="translate(745.48424)"
   width="1052.5"
   height="743.75" /><use
   height="743.75"
   width="1052.5"
   id="use10675"
   xlink:href="#path9807"
   y="0"
   x="0"
   transform="matrix(0,-1.3400687,0.98817107,0,20.690096,62.230796)" /><use
   transform="matrix(0,-1.3400687,0.98817107,0,20.687932,212.29881)"
   x="0"
   y="0"
   xlink:href="#path9807"
   id="use10677"
   width="1052.5"
   height="743.75" /><use
   height="743.75"
   width="1052.5"
   id="use10679"
   xlink:href="#path9807"
   y="0"
   x="0"
   transform="matrix(0,-1.3400687,0.98817107,0,20.687932,363.36681)" /><use
   transform="matrix(0,-1.3400687,0.98817107,0,20.687857,514.43481)"
   x="0"
   y="0"
   xlink:href="#path9807"
   id="use10681"
   width="1052.5"
   height="743.75" /><use
   height="743.75"
   width="1052.5"
   id="use10683"
   xlink:href="#path9807"
   y="0"
   x="0"
   transform="matrix(0,-1.3400687,0.98817107,0,20.690022,665.50281)" /><use
   transform="matrix(0,-1.3400687,0.98817107,0,20.687932,816.56551)"
   x="0"
   y="0"
   xlink:href="#path9807"
   id="use10685"
   width="1052.5"
   height="743.75" /><path
   style="opacity:0.96000001;fill:none;fill-opacity:0.75;fill-rule:evenodd;stroke:#000000;stroke-width:0.43192315;stroke-linecap:butt;stroke-linejoin:miter;stroke-miterlimit:4;stroke-dasharray:2.59153886, 2.59153886;stroke-dashoffset:0;stroke-opacity:1"
   d="M 72.67077,14.846992 V 769.18172"
   id="path10687"
   sodipodi:nodetypes="cc"
   inkscape:connector-curvature="0" /><use
   x="0"
   y="0"
   xlink:href="#path10687"
   id="use10689"
   transform="translate(37.311508)"
   width="1052.5"
   height="743.75" /><use
   height="743.75"
   width="1052.5"
   transform="translate(74.623028)"
   id="use10691"
   xlink:href="#path10687"
   y="0"
   x="0" /><use
   x="0"
   y="0"
   xlink:href="#path10687"
   id="use10693"
   transform="translate(149.24607)"
   width="1052.5"
   height="743.75" /><use
   height="743.75"
   width="1052.5"
   transform="translate(186.55759)"
   id="use10695"
   xlink:href="#path10687"
   y="0"
   x="0" /><use
   x="0"
   y="0"
   xlink:href="#path10687"
   id="use10697"
   transform="translate(223.86911)"
   width="1052.5"
   height="743.75" /><use
   height="743.75"
   width="1052.5"
   transform="translate(298.49215,-1.0000009)"
   id="use10699"
   xlink:href="#path10687"
   y="0"
   x="0" /><use
   x="0"
   y="0"
   xlink:href="#path10687"
   id="use10701"
   transform="translate(335.80367)"
   width="1052.5"
   height="743.75" /><use
   height="743.75"
   width="1052.5"
   transform="translate(373.11519)"
   id="use10703"
   xlink:href="#path10687"
   y="0"
   x="0" /><use
   x="0"
   y="0"
   xlink:href="#path10687"
   id="use10705"
   transform="translate(447.73823,-1.0000009)"
   width="1052.5"
   height="743.75" /><use
   height="743.75"
   width="1052.5"
   transform="translate(485.04975)"
   id="use10707"
   xlink:href="#path10687"
   y="0"
   x="0" /><use
   x="0"
   y="0"
   xlink:href="#path10687"
   id="use10709"
   transform="translate(522.36127)"
   width="1052.5"
   height="743.75" /><use
   height="743.75"
   width="1052.5"
   transform="translate(596.98431)"
   id="use10711"
   xlink:href="#path10687"
   y="0"
   x="0" /><use
   x="0"
   y="0"
   xlink:href="#path10687"
   id="use10713"
   transform="translate(634.29583)"
   width="1052.5"
   height="743.75" /><use
   height="743.75"
   width="1052.5"
   transform="translate(671.60735)"
   id="use10715"
   xlink:href="#path10687"
   y="0"
   x="0" /><use
   x="0"
   y="0"
   xlink:href="#path10687"
   id="use10717"
   transform="matrix(0,-1.3400687,0.98817383,0,20.687904,148.9978)"
   width="1052.5"
   height="743.75" /><use
   height="743.75"
   width="1052.5"
   transform="matrix(0,-1.3400687,0.98817383,0,20.687829,186.76481)"
   id="use10721"
   xlink:href="#path10687"
   y="0"
   x="0" /><use
   x="0"
   y="0"
   xlink:href="#path10687"
   id="use10723"
   transform="matrix(0,-1.3400687,0.98817383,0,20.687829,224.53181)"
   width="1052.5"
   height="743.75" /><use
   height="743.75"
   width="1052.5"
   transform="matrix(0,-1.3400687,0.98817383,0,20.687829,300.06581)"
   id="use10725"
   xlink:href="#path10687"
   y="0"
   x="0" /><use
   x="0"
   y="0"
   xlink:href="#path10687"
   id="use10727"
   transform="matrix(0,-1.3400687,0.98817383,0,20.687829,337.83281)"
   width="1052.5"
   height="743.75" /><use
   height="743.75"
   width="1052.5"
   transform="matrix(0,-1.3400687,0.98817383,0,20.687829,375.59981)"
   id="use10729"
   xlink:href="#path10687"
   y="0"
   x="0" /><use
   x="0"
   y="0"
   xlink:href="#path10687"
   id="use10731"
   transform="matrix(0,-1.3400687,0.98817383,0,20.687829,451.13381)"
   width="1052.5"
   height="743.75" /><use
   height="743.75"
   width="1052.5"
   transform="matrix(0,-1.3400687,0.98817383,0,20.757826,488.90081)"
   id="use10733"
   xlink:href="#path10687"
   y="0"
   x="0" /><use
   x="0"
   y="0"
   xlink:href="#path10687"
   id="use10735"
   transform="matrix(0,-1.3400687,0.98817383,0,20.687829,526.66781)"
   width="1052.5"
   height="743.75" /><use
   height="743.75"
   width="1052.5"
   transform="matrix(0,-1.3400687,0.98817383,0,20.687829,602.20181)"
   id="use10737"
   xlink:href="#path10687"
   y="0"
   x="0" /><use
   x="0"
   y="0"
   xlink:href="#path10687"
   id="use10739"
   transform="matrix(0,-1.3400687,0.98817383,0,20.687829,639.96881)"
   width="1052.5"
   height="743.75" /><use
   height="743.75"
   width="1052.5"
   transform="matrix(0,-1.3400687,0.98817383,0,20.687829,677.73581)"
   id="use10741"
   xlink:href="#path10687"
   y="0"
   x="0" /><use
   x="0"
   y="0"
   xlink:href="#path10687"
   id="use10743"
   transform="matrix(0,-1.3400687,0.98817383,0,20.687829,753.26971)"
   width="1052.5"
   height="743.75" /><use
   height="743.75"
   width="1052.5"
   transform="matrix(0,-1.3400687,0.98817383,0,20.687829,791.03681)"
   id="use10745"
   xlink:href="#path10687"
   y="0"
   x="0" /><use
   x="0"
   y="0"
   xlink:href="#path10687"
   id="use10747"
   transform="matrix(0,-1.3400687,0.98817383,0,20.687829,828.80371)"
   width="1052.5"
   height="743.75" /><rect
   y="14.847026"
   x="35.361439"
   height="754.33472"
   width="745.48425"
   id="rect9701"
   style="display:inline;overflow:visible;visibility:visible;opacity:1;fill:none;fill-opacity:1;fill-rule:evenodd;stroke:#000000;stroke-width:0.8638463;stroke-linecap:butt;stroke-linejoin:round;stroke-miterlimit:10.43299961;stroke-dasharray:none;stroke-dashoffset:5.5;stroke-opacity:1;marker:none;marker-start:none;marker-mid:none;marker-end:none;enable-background:accumulate" /><path
   style="display:inline;overflow:visible;visibility:visible;opacity:1;fill:none;fill-opacity:1;fill-rule:evenodd;stroke:#000000;stroke-width:0.8638463;stroke-linecap:butt;stroke-linejoin:round;stroke-miterlimit:10.43299961;stroke-dasharray:none;stroke-dashoffset:5.5;stroke-opacity:1;marker:none;marker-start:none;marker-mid:none;marker-end:none;enable-background:accumulate"
   d="m 35.361564,14.846992 c 409.681386,0 745.484116,339.305278 745.484116,754.334758"
   id="path10749"
   sodipodi:nodetypes="cc"
   inkscape:connector-curvature="0" /><use
   x="0"
   y="0"
   inkscape:tiled-clone-of="#path12743"
   xlink:href="#path12743"
   transform="translate(652.10666,161.92354)"
   id="use12747"
   width="1052.5"
   height="743.75" /><use
   x="0"
   y="0"
   inkscape:tiled-clone-of="#path12743"
   xlink:href="#path12743"
   transform="translate(440.0985,447.95889)"
   id="use12749"
   width="1052.5"
   height="743.75" /><use
   x="0"
   y="0"
   inkscape:tiled-clone-of="#path12743"
   xlink:href="#path12743"
   transform="translate(393.29515,176.69843)"
   id="use12751"
   width="1052.5"
   height="743.75" /><use
   x="0"
   y="0"
   inkscape:tiled-clone-of="#path12743"
   xlink:href="#path12743"
   transform="translate(494.35639,167.72247)"
   id="use12753"
   width="1052.5"
   height="743.75" /><use
   x="0"
   y="0"
   inkscape:tiled-clone-of="#path12743"
   xlink:href="#path12743"
   transform="translate(144.32762,297.32517)"
   id="use12755"
   width="1052.5"
   height="743.75" /><use
   x="0"
   y="0"
   inkscape:tiled-clone-of="#path12743"
   xlink:href="#path12743"
   transform="translate(207.54706,-145.04475)"
   id="use12757"
   width="1052.5"
   height="743.75" /><use
   x="0"
   y="0"
   inkscape:tiled-clone-of="#path12743"
   xlink:href="#path12743"
   transform="translate(127.1673,350.92159)"
   id="use12759"
   width="1052.5"
   height="743.75" /><use
   x="0"
   y="0"
   inkscape:tiled-clone-of="#path12743"
   xlink:href="#path12743"
   transform="translate(113.01407,147.72917)"
   id="use12761"
   width="1052.5"
   height="743.75" /><use
   x="0"
   y="0"
   inkscape:tiled-clone-of="#path12743"
   xlink:href="#path12743"
   transform="translate(85.469512,-1.6522591)"
   id="use12763"
   width="1052.5"
   height="743.75" /><use
   x="0"
   y="0"
   inkscape:tiled-clone-of="#path12743"
   xlink:href="#path12743"
   transform="translate(449.1564,60.307311)"
   id="use12765"
   width="1052.5"
   height="743.75" /><use
   x="0"
   y="0"
   inkscape:tiled-clone-of="#path12743"
   xlink:href="#path12743"
   transform="translate(20.133533,78.710951)"
   id="use12767"
   width="1052.5"
   height="743.75" /><use
   x="0"
   y="0"
   inkscape:tiled-clone-of="#path12743"
   xlink:href="#path12743"
   transform="translate(280.87316,231.45651)"
   id="use12769"
   width="1052.5"
   height="743.75" /><use
   x="0"
   y="0"
   inkscape:tiled-clone-of="#path12743"
   xlink:href="#path12743"
   transform="translate(437.25417,316.5406)"
   id="use12771"
   width="1052.5"
   height="743.75" /><use
   x="0"
   y="0"
   inkscape:tiled-clone-of="#path12743"
   xlink:href="#path12743"
   transform="translate(72.226012,227.12675)"
   id="use12773"
   width="1052.5"
   height="743.75" /><use
   x="0"
   y="0"
   inkscape:tiled-clone-of="#path12743"
   xlink:href="#path12743"
   transform="translate(324.60547,376.39289)"
   id="use12775"
   width="1052.5"
   height="743.75" /><use
   x="0"
   y="0"
   inkscape:tiled-clone-of="#path12743"
   xlink:href="#path12743"
   transform="translate(-15.658289,516.08452)"
   id="use12777"
   width="1052.5"
   height="743.75" /><use
   x="0"
   y="0"
   inkscape:tiled-clone-of="#path12743"
   xlink:href="#path12743"
   transform="translate(271.78549,481.68098)"
   id="use12779"
   width="1052.5"
   height="743.75" /><use
   x="0"
   y="0"
   inkscape:tiled-clone-of="#path12743"
   xlink:href="#path12743"
   transform="translate(475.152,-110.81713)"
   id="use12781"
   width="1052.5"
   height="743.75" /><use
   x="0"
   y="0"
   inkscape:tiled-clone-of="#path12743"
   xlink:href="#path12743"
   transform="translate(167.55874,-85.172609)"
   id="use12783"
   width="1052.5"
   height="743.75" /><use
   x="0"
   y="0"
   inkscape:tiled-clone-of="#path12743"
   xlink:href="#path12743"
   transform="translate(510.11782,113.96733)"
   id="use12785"
   width="1052.5"
   height="743.75" /><use
   x="0"
   y="0"
   inkscape:tiled-clone-of="#path12743"
   xlink:href="#path12743"
   transform="translate(508.7611,28.876451)"
   id="use12787"
   width="1052.5"
   height="743.75" /><use
   x="0"
   y="0"
   inkscape:tiled-clone-of="#path12743"
   xlink:href="#path12743"
   transform="translate(332.94213,-45.199319)"
   id="use12789"
   width="1052.5"
   height="743.75" /><use
   x="0"
   y="0"
   inkscape:tiled-clone-of="#path12743"
   xlink:href="#path12743"
   transform="translate(10.789236,80.324011)"
   id="use12791"
   width="1052.5"
   height="743.75" /><use
   x="0"
   y="0"
   inkscape:tiled-clone-of="#path12743"
   xlink:href="#path12743"
   transform="translate(27.877837,307.35375)"
   id="use12793"
   width="1052.5"
   height="743.75" /><use
   x="0"
   y="0"
   inkscape:tiled-clone-of="#path12743"
   xlink:href="#path12743"
   transform="translate(492.99534,232.32344)"
   id="use12795"
   width="1052.5"
   height="743.75" /><use
   x="0"
   y="0"
   inkscape:tiled-clone-of="#path12743"
   xlink:href="#path12743"
   transform="translate(12.886069,543.89416)"
   id="use12797"
   width="1052.5"
   height="743.75" /><use
   x="0"
   y="0"
   inkscape:tiled-clone-of="#path12743"
   xlink:href="#path12743"
   transform="translate(199.32472,-132.72709)"
   id="use12799"
   width="1052.5"
   height="743.75" /><use
   x="0"
   y="0"
   inkscape:tiled-clone-of="#path12743"
   xlink:href="#path12743"
   transform="translate(271.62475,446.57538)"
   id="use12801"
   width="1052.5"
   height="743.75" /><use
   x="0"
   y="0"
   inkscape:tiled-clone-of="#path12743"
   xlink:href="#path12743"
   transform="translate(347.646,206.9968)"
   id="use12803"
   width="1052.5"
   height="743.75" /><use
   x="0"
   y="0"
   inkscape:tiled-clone-of="#path12743"
   xlink:href="#path12743"
   transform="translate(196.39234,401.02699)"
   id="use12805"
   width="1052.5"
   height="743.75" /><use
   x="0"
   y="0"
   inkscape:tiled-clone-of="#path12743"
   xlink:href="#path12743"
   transform="translate(546.64535,20.714381)"
   id="use12807"
   width="1052.5"
   height="743.75" /><use
   x="0"
   y="0"
   inkscape:tiled-clone-of="#path12743"
   xlink:href="#path12743"
   transform="translate(486.69149,-109.6114)"
   id="use12809"
   width="1052.5"
   height="743.75" /><use
   x="0"
   y="0"
   inkscape:tiled-clone-of="#path12743"
   xlink:href="#path12743"
   transform="translate(14.422184,228.08114)"
   id="use12811"
   width="1052.5"
   height="743.75" /><use
   x="0"
   y="0"
   inkscape:tiled-clone-of="#path12743"
   xlink:href="#path12743"
   transform="translate(619.81347,-100.7967)"
   id="use12813"
   width="1052.5"
   height="743.75" /><use
   x="0"
   y="0"
   inkscape:tiled-clone-of="#path12743"
   xlink:href="#path12743"
   transform="translate(511.7546,116.96909)"
   id="use12815"
   width="1052.5"
   height="743.75" /><use
   x="0"
   y="0"
   inkscape:tiled-clone-of="#path12743"
   xlink:href="#path12743"
   transform="translate(328.75749,-178.93634)"
   id="use12817"
   width="1052.5"
   height="743.75" /><use
   x="0"
   y="0"
   inkscape:tiled-clone-of="#path12743"
   xlink:href="#path12743"
   transform="translate(400.20965,498.61858)"
   id="use12819"
   width="1052.5"
   height="743.75" /><use
   x="0"
   y="0"
   inkscape:tiled-clone-of="#path12743"
   xlink:href="#path12743"
   transform="translate(-2.3764323,338.97867)"
   id="use12821"
   width="1052.5"
   height="743.75" /><use
   x="0"
   y="0"
   inkscape:tiled-clone-of="#path12743"
   xlink:href="#path12743"
   transform="translate(325.05835,234.7428)"
   id="use12823"
   width="1052.5"
   height="743.75" /><use
   x="0"
   y="0"
   inkscape:tiled-clone-of="#path12743"
   xlink:href="#path12743"
   transform="translate(682.99963,465.95373)"
   id="use12825"
   width="1052.5"
   height="743.75" /><use
   x="0"
   y="0"
   inkscape:tiled-clone-of="#path12743"
   xlink:href="#path12743"
   transform="translate(328.28476,205.18599)"
   id="use12827"
   width="1052.5"
   height="743.75" /><use
   x="0"
   y="0"
   inkscape:tiled-clone-of="#path12743"
   xlink:href="#path12743"
   transform="translate(149.45974,-64.589729)"
   id="use12829"
   width="1052.5"
   height="743.75" /><use
   x="0"
   y="0"
   inkscape:tiled-clone-of="#path12743"
   xlink:href="#path12743"
   transform="translate(123.02789,-108.09381)"
   id="use12831"
   width="1052.5"
   height="743.75" /><use
   x="0"
   y="0"
   inkscape:tiled-clone-of="#path12743"
   xlink:href="#path12743"
   transform="translate(359.23183,-15.504449)"
   id="use12833"
   width="1052.5"
   height="743.75" /><use
   x="0"
   y="0"
   inkscape:tiled-clone-of="#path12743"
   xlink:href="#path12743"
   transform="translate(161.553,407.07092)"
   id="use12835"
   width="1052.5"
   height="743.75" /><use
   x="0"
   y="0"
   inkscape:tiled-clone-of="#path12743"
   xlink:href="#path12743"
   transform="translate(414.95479,-146.9159)"
   id="use12837"
   width="1052.5"
   height="743.75" /><use
   x="0"
   y="0"
   inkscape:tiled-clone-of="#path12743"
   xlink:href="#path12743"
   transform="translate(50.383624,495.52999)"
   id="use12839"
   width="1052.5"
   height="743.75" /><use
   x="0"
   y="0"
   inkscape:tiled-clone-of="#path12743"
   xlink:href="#path12743"
   transform="translate(316.4526,214.00628)"
   id="use12841"
   width="1052.5"
   height="743.75" /><use
   x="0"
   y="0"
   inkscape:tiled-clone-of="#path12743"
   xlink:href="#path12743"
   transform="translate(208.04644,-112.32388)"
   id="use12843"
   width="1052.5"
   height="743.75" /><use
   x="0"
   y="0"
   inkscape:tiled-clone-of="#path12743"
   xlink:href="#path12743"
   transform="translate(308.99186,-106.93875)"
   id="use12845"
   width="1052.5"
   height="743.75" /><use
   x="0"
   y="0"
   inkscape:tiled-clone-of="#path12743"
   xlink:href="#path12743"
   transform="translate(555.27245,-41.964389)"
   id="use12847"
   width="1052.5"
   height="743.75" /><use
   x="0"
   y="0"
   inkscape:tiled-clone-of="#path12743"
   xlink:href="#path12743"
   transform="translate(435.28957,-64.216469)"
   id="use12849"
   width="1052.5"
   height="743.75" /><use
   x="0"
   y="0"
   inkscape:tiled-clone-of="#path12743"
   xlink:href="#path12743"
   transform="translate(352.70335,426.66889)"
   id="use12851"
   width="1052.5"
   height="743.75" /><use
   x="0"
   y="0"
   inkscape:tiled-clone-of="#path12743"
   xlink:href="#path12743"
   transform="translate(632.6805,98.640791)"
   id="use12853"
   width="1052.5"
   height="743.75" /><use
   x="0"
   y="0"
   inkscape:tiled-clone-of="#path12743"
   xlink:href="#path12743"
   transform="translate(426.60113,555.82532)"
   id="use12855"
   width="1052.5"
   height="743.75" /><use
   x="0"
   y="0"
   inkscape:tiled-clone-of="#path12743"
   xlink:href="#path12743"
   transform="translate(715.19074,526.36916)"
   id="use12857"
   width="1052.5"
   height="743.75" /><use
   x="0"
   y="0"
   inkscape:tiled-clone-of="#path12743"
   xlink:href="#path12743"
   transform="translate(229.87167,-71.932549)"
   id="use12859"
   width="1052.5"
   height="743.75" /><use
   x="0"
   y="0"
   inkscape:tiled-clone-of="#path12743"
   xlink:href="#path12743"
   transform="translate(549.47028,176.91232)"
   id="use12861"
   width="1052.5"
   height="743.75" /><use
   x="0"
   y="0"
   inkscape:tiled-clone-of="#path12743"
   xlink:href="#path12743"
   transform="translate(486.01137,389.31312)"
   id="use12863"
   width="1052.5"
   height="743.75" /><use
   x="0"
   y="0"
   inkscape:tiled-clone-of="#path12743"
   xlink:href="#path12743"
   transform="translate(639.5735,6.3533109)"
   id="use12865"
   width="1052.5"
   height="743.75" /><use
   x="0"
   y="0"
   inkscape:tiled-clone-of="#path12743"
   xlink:href="#path12743"
   transform="translate(43.474351,293.16198)"
   id="use12867"
   width="1052.5"
   height="743.75" /><use
   x="0"
   y="0"
   inkscape:tiled-clone-of="#path12743"
   xlink:href="#path12743"
   transform="translate(227.40321,-26.303789)"
   id="use12869"
   width="1052.5"
   height="743.75" /><use
   x="0"
   y="0"
   inkscape:tiled-clone-of="#path12743"
   xlink:href="#path12743"
   transform="translate(368.10309,444.7981)"
   id="use12871"
   width="1052.5"
   height="743.75" /><use
   x="0"
   y="0"
   inkscape:tiled-clone-of="#path12743"
   xlink:href="#path12743"
   transform="translate(569.88006,-102.70086)"
   id="use12873"
   width="1052.5"
   height="743.75" /><use
   x="0"
   y="0"
   inkscape:tiled-clone-of="#path12743"
   xlink:href="#path12743"
   transform="translate(684.18062,498.43195)"
   id="use12875"
   width="1052.5"
   height="743.75" /><use
   x="0"
   y="0"
   inkscape:tiled-clone-of="#path12743"
   xlink:href="#path12743"
   transform="translate(274.70041,-49.558379)"
   id="use12877"
   width="1052.5"
   height="743.75" /><use
   x="0"
   y="0"
   inkscape:tiled-clone-of="#path12743"
   xlink:href="#path12743"
   transform="translate(346.67329,185.4895)"
   id="use12879"
   width="1052.5"
   height="743.75" /><use
   x="0"
   y="0"
   inkscape:tiled-clone-of="#path12743"
   xlink:href="#path12743"
   transform="translate(132.07287,-181.72291)"
   id="use12881"
   width="1052.5"
   height="743.75" /><use
   x="0"
   y="0"
   inkscape:tiled-clone-of="#path12743"
   xlink:href="#path12743"
   transform="translate(519.36242,501.58774)"
   id="use12885"
   width="1052.5"
   height="743.75" /><use
   x="0"
   y="0"
   inkscape:tiled-clone-of="#path12743"
   xlink:href="#path12743"
   transform="translate(204.60371,-13.226829)"
   id="use12887"
   width="1052.5"
   height="743.75" /><use
   x="0"
   y="0"
   inkscape:tiled-clone-of="#path12743"
   xlink:href="#path12743"
   transform="translate(365.93663,318.13093)"
   id="use12889"
   width="1052.5"
   height="743.75" /><use
   x="0"
   y="0"
   inkscape:tiled-clone-of="#path12743"
   xlink:href="#path12743"
   transform="translate(454.13524,118.33526)"
   id="use12891"
   width="1052.5"
   height="743.75" /><use
   x="0"
   y="0"
   inkscape:tiled-clone-of="#path12743"
   xlink:href="#path12743"
   transform="translate(522.44659,161.92477)"
   id="use12893"
   width="1052.5"
   height="743.75" /><use
   x="0"
   y="0"
   inkscape:tiled-clone-of="#path12743"
   xlink:href="#path12743"
   transform="translate(221.93185,148.20097)"
   id="use12895"
   width="1052.5"
   height="743.75" /><use
   x="0"
   y="0"
   inkscape:tiled-clone-of="#path12743"
   xlink:href="#path12743"
   transform="translate(418.38954,99.788451)"
   id="use12897"
   width="1052.5"
   height="743.75" /><use
   x="0"
   y="0"
   inkscape:tiled-clone-of="#path12743"
   xlink:href="#path12743"
   transform="translate(378.05795,-37.521329)"
   id="use12899"
   width="1052.5"
   height="743.75" /><use
   x="0"
   y="0"
   inkscape:tiled-clone-of="#path12743"
   xlink:href="#path12743"
   transform="translate(270.28855,-7.8417991)"
   id="use12901"
   width="1052.5"
   height="743.75" /><use
   x="0"
   y="0"
   inkscape:tiled-clone-of="#path12743"
   xlink:href="#path12743"
   transform="translate(475.47318,-147.24271)"
   id="use12903"
   width="1052.5"
   height="743.75" /><use
   x="0"
   y="0"
   inkscape:tiled-clone-of="#path12743"
   xlink:href="#path12743"
   transform="translate(20.918194,471.21288)"
   id="use12905"
   width="1052.5"
   height="743.75" /><use
   x="0"
   y="0"
   inkscape:tiled-clone-of="#path12743"
   xlink:href="#path12743"
   transform="translate(43.118997,386.0657)"
   id="use12907"
   width="1052.5"
   height="743.75" /><use
   x="0"
   y="0"
   inkscape:tiled-clone-of="#path12743"
   xlink:href="#path12743"
   transform="translate(648.33149,550.99226)"
   id="use12909"
   width="1052.5"
   height="743.75" /><use
   x="0"
   y="0"
   inkscape:tiled-clone-of="#path12743"
   xlink:href="#path12743"
   transform="translate(531.08152,268.83257)"
   id="use12911"
   width="1052.5"
   height="743.75" /><use
   x="0"
   y="0"
   inkscape:tiled-clone-of="#path12743"
   xlink:href="#path12743"
   transform="translate(145.38503,63.927771)"
   id="use12913"
   width="1052.5"
   height="743.75" /><use
   x="0"
   y="0"
   inkscape:tiled-clone-of="#path12743"
   xlink:href="#path12743"
   transform="translate(10.464029,260.7744)"
   id="use12915"
   width="1052.5"
   height="743.75" /><use
   x="0"
   y="0"
   inkscape:tiled-clone-of="#path12743"
   xlink:href="#path12743"
   transform="translate(521.78655,365.12275)"
   id="use12917"
   width="1052.5"
   height="743.75" /><use
   x="0"
   y="0"
   inkscape:tiled-clone-of="#path12743"
   xlink:href="#path12743"
   transform="translate(166.2791,460.02075)"
   id="use12919"
   width="1052.5"
   height="743.75" /><use
   x="0"
   y="0"
   inkscape:tiled-clone-of="#path12743"
   xlink:href="#path12743"
   transform="translate(427.55034,69.729071)"
   id="use12921"
   width="1052.5"
   height="743.75" /><use
   x="0"
   y="0"
   inkscape:tiled-clone-of="#path12743"
   xlink:href="#path12743"
   transform="translate(91.345632,-77.466059)"
   id="use12923"
   width="1052.5"
   height="743.75" /><use
   x="0"
   y="0"
   inkscape:tiled-clone-of="#path12743"
   xlink:href="#path12743"
   transform="translate(698.04036,-184.02903)"
   id="use12925"
   width="1052.5"
   height="743.75" /><use
   x="0"
   y="0"
   inkscape:tiled-clone-of="#path12743"
   xlink:href="#path12743"
   transform="translate(26.6232,228.07052)"
   id="use12927"
   width="1052.5"
   height="743.75" /><use
   x="0"
   y="0"
   inkscape:tiled-clone-of="#path12743"
   xlink:href="#path12743"
   transform="translate(597.7546,102.25739)"
   id="use12929"
   width="1052.5"
   height="743.75" /><use
   x="0"
   y="0"
   inkscape:tiled-clone-of="#path12743"
   xlink:href="#path12743"
   transform="translate(544.21503,56.093901)"
   id="use12931"
   width="1052.5"
   height="743.75" /><use
   x="0"
   y="0"
   inkscape:tiled-clone-of="#path12743"
   xlink:href="#path12743"
   transform="translate(712.99034,376.21951)"
   id="use12933"
   width="1052.5"
   height="743.75" /><use
   x="0"
   y="0"
   inkscape:tiled-clone-of="#path12743"
   xlink:href="#path12743"
   transform="translate(-1.7223613,265.23856)"
   id="use12935"
   width="1052.5"
   height="743.75" /><use
   x="0"
   y="0"
   inkscape:tiled-clone-of="#path12743"
   xlink:href="#path12743"
   transform="translate(594.85915,226.07803)"
   id="use12937"
   width="1052.5"
   height="743.75" /><use
   x="0"
   y="0"
   inkscape:tiled-clone-of="#path12743"
   xlink:href="#path12743"
   transform="translate(434.47416,555.26779)"
   id="use12939"
   width="1052.5"
   height="743.75" /><use
   x="0"
   y="0"
   inkscape:tiled-clone-of="#path12743"
   xlink:href="#path12743"
   transform="translate(94.369132,384.71772)"
   id="use12941"
   width="1052.5"
   height="743.75" /><use
   x="0"
   y="0"
   inkscape:tiled-clone-of="#path12743"
   xlink:href="#path12743"
   transform="translate(232.00402,360.24501)"
   id="use12943"
   width="1052.5"
   height="743.75" /><ellipse
   style="display:inline;overflow:visible;visibility:visible;opacity:1;fill:#000000;fill-opacity:1;fill-rule:evenodd;stroke:none;stroke-width:0.8638463;stroke-linecap:butt;stroke-linejoin:round;stroke-miterlimit:10.43299961;stroke-dasharray:none;stroke-dashoffset:5.5;stroke-opacity:1;marker:none;marker-start:none;marker-mid:none;marker-end:none;enable-background:accumulate"
   id="path12743"
   inkscape:tile-cx="1963.1089"
   inkscape:tile-cy="-97.41234"
   inkscape:tile-w="10.756728"
   inkscape:tile-h="10.756728"
   inkscape:tile-x0="1957.7305"
   inkscape:tile-y0="-102.7907"
   cx="61.002487"
   cy="204.34724"
   rx="4.0134988"
   ry="5.3783641" /><text
   xml:space="preserve"
   style="font-style:normal;font-variant:normal;font-weight:normal;font-stretch:normal;font-size:10.36615562px;line-height:0%;font-family:'Bitstream Vera Sans';-inkscape-font-specification:'Bitstream Vera Sans';text-align:center;writing-mode:lr-tb;text-anchor:middle;fill:#000000;fill-opacity:1;stroke:none;stroke-width:0.8638463px;stroke-linecap:butt;stroke-linejoin:miter;stroke-opacity:1"
   x="40.962711"
   y="680.66827"
   id="text12951"
   transform="scale(0.86384626,1.1576134)"><tspan
     sodipodi:role="line"
     id="tspan12953"
     x="40.962711"
     y="680.66827"
     style="font-size:13.82154083px;line-height:1.25;stroke-width:0.8638463px">0.0</tspan></text>

<text
   xml:space="preserve"
   style="font-style:normal;font-variant:normal;font-weight:normal;font-stretch:normal;font-size:10.36615562px;line-height:0%;font-family:'Bitstream Vera Sans';-inkscape-font-specification:'Bitstream Vera Sans';text-align:center;writing-mode:lr-tb;text-anchor:middle;fill:#000000;fill-opacity:1;stroke:none;stroke-width:0.8638463px;stroke-linecap:butt;stroke-linejoin:miter;stroke-opacity:1"
   x="213.70476"
   y="680.66827"
   id="text12955"
   transform="scale(0.86384626,1.1576134)"><tspan
     sodipodi:role="line"
     id="tspan12957"
     x="213.70476"
     y="680.66827"
     style="font-size:13.82154083px;line-height:1.25;stroke-width:0.8638463px">0.2</tspan></text>

<text
   xml:space="preserve"
   style="font-style:normal;font-variant:normal;font-weight:normal;font-stretch:normal;font-size:10.36615562px;line-height:0%;font-family:'Bitstream Vera Sans';-inkscape-font-specification:'Bitstream Vera Sans';text-align:center;writing-mode:lr-tb;text-anchor:middle;fill:#000000;fill-opacity:1;stroke:none;stroke-width:0.8638463px;stroke-linecap:butt;stroke-linejoin:miter;stroke-opacity:1"
   x="385.98114"
   y="680.66827"
   id="text12959"
   transform="scale(0.86384626,1.1576134)"><tspan
     sodipodi:role="line"
     id="tspan12961"
     x="385.98114"
     y="680.66827"
     style="font-size:13.82154083px;line-height:1;stroke-width:0.8638463px">0.4</tspan></text>

<text
   xml:space="preserve"
   style="font-style:normal;font-variant:normal;font-weight:normal;font-stretch:normal;font-size:10.36615562px;line-height:0%;font-family:'Bitstream Vera Sans';-inkscape-font-specification:'Bitstream Vera Sans';text-align:center;writing-mode:lr-tb;text-anchor:middle;fill:#000000;fill-opacity:1;stroke:none;stroke-width:0.8638463px;stroke-linecap:butt;stroke-linejoin:miter;stroke-opacity:1"
   x="558.86493"
   y="680.66827"
   id="text12963"
   transform="scale(0.86384626,1.1576134)"><tspan
     sodipodi:role="line"
     id="tspan12965"
     x="558.86493"
     y="680.66827"
     style="font-size:13.82154083px;line-height:1;stroke-width:0.8638463px">0.6</tspan></text>

<text
   xml:space="preserve"
   style="font-style:normal;font-variant:normal;font-weight:normal;font-stretch:normal;font-size:10.36615562px;line-height:0%;font-family:'Bitstream Vera Sans';-inkscape-font-specification:'Bitstream Vera Sans';text-align:center;writing-mode:lr-tb;text-anchor:middle;fill:#000000;fill-opacity:1;stroke:none;stroke-width:0.8638463px;stroke-linecap:butt;stroke-linejoin:miter;stroke-opacity:1"
   x="731.65424"
   y="680.66827"
   id="text12967"
   transform="scale(0.86384626,1.1576134)"><tspan
     sodipodi:role="line"
     id="tspan12969"
     x="731.65424"
     y="680.66827"
     style="font-size:13.82154083px;line-height:1;stroke-width:0.8638463px">0.8</tspan></text>

<text
   xml:space="preserve"
   style="font-style:normal;font-variant:normal;font-weight:normal;font-stretch:normal;font-size:10.36615562px;line-height:0%;font-family:'Bitstream Vera Sans';-inkscape-font-specification:'Bitstream Vera Sans';text-align:center;writing-mode:lr-tb;text-anchor:middle;fill:#000000;fill-opacity:1;stroke:none;stroke-width:0.8638463px;stroke-linecap:butt;stroke-linejoin:miter;stroke-opacity:1"
   x="903.7619"
   y="680.66827"
   id="text12971"
   transform="scale(0.86384626,1.1576134)"><tspan
     sodipodi:role="line"
     id="tspan12973"
     x="903.7619"
     y="680.66827"
     style="font-size:13.82154083px;line-height:1;stroke-width:0.8638463px">1.0</tspan></text>

<text
   id="text12975"
   y="668.55414"
   x="23.122049"
   style="font-style:normal;font-variant:normal;font-weight:normal;font-stretch:normal;font-size:10.36615562px;line-height:0%;font-family:'Bitstream Vera Sans';-inkscape-font-specification:'Bitstream Vera Sans';text-align:center;writing-mode:lr-tb;text-anchor:middle;fill:#000000;fill-opacity:1;stroke:none;stroke-width:0.8638463px;stroke-linecap:butt;stroke-linejoin:miter;stroke-opacity:1"
   xml:space="preserve"
   transform="scale(0.86384626,1.1576134)"><tspan
     y="668.55414"
     x="23.122049"
     id="tspan12977"
     sodipodi:role="line"
     style="font-size:13.82154083px;line-height:1.25;stroke-width:0.8638463px">0.0</tspan></text>

<text
   id="text12979"
   y="538.4823"
   x="23.587715"
   style="font-style:normal;font-variant:normal;font-weight:normal;font-stretch:normal;font-size:10.36615562px;line-height:0%;font-family:'Bitstream Vera Sans';-inkscape-font-specification:'Bitstream Vera Sans';text-align:center;writing-mode:lr-tb;text-anchor:middle;fill:#000000;fill-opacity:1;stroke:none;stroke-width:0.8638463px;stroke-linecap:butt;stroke-linejoin:miter;stroke-opacity:1"
   xml:space="preserve"
   transform="scale(0.86384626,1.1576134)"><tspan
     y="538.4823"
     x="23.587715"
     id="tspan12981"
     sodipodi:role="line"
     style="font-size:13.82154083px;line-height:1.25;stroke-width:0.8638463px">0.2</tspan></text>

<text
   id="text12983"
   y="408.41049"
   x="22.980326"
   style="font-style:normal;font-variant:normal;font-weight:normal;font-stretch:normal;font-size:10.36615562px;line-height:0%;font-family:'Bitstream Vera Sans';-inkscape-font-specification:'Bitstream Vera Sans';text-align:center;writing-mode:lr-tb;text-anchor:middle;fill:#000000;fill-opacity:1;stroke:none;stroke-width:0.8638463px;stroke-linecap:butt;stroke-linejoin:miter;stroke-opacity:1"
   xml:space="preserve"
   transform="scale(0.86384626,1.1576134)"><tspan
     y="408.41049"
     x="22.980326"
     id="tspan12985"
     sodipodi:role="line"
     style="font-size:13.82154083px;line-height:1;stroke-width:0.8638463px">0.4</tspan></text>

<text
   id="text12987"
   y="278.33868"
   x="23.074806"
   style="font-style:normal;font-variant:normal;font-weight:normal;font-stretch:normal;font-size:10.36615562px;line-height:0%;font-family:'Bitstream Vera Sans';-inkscape-font-specification:'Bitstream Vera Sans';text-align:center;writing-mode:lr-tb;text-anchor:middle;fill:#000000;fill-opacity:1;stroke:none;stroke-width:0.8638463px;stroke-linecap:butt;stroke-linejoin:miter;stroke-opacity:1"
   xml:space="preserve"
   transform="scale(0.86384626,1.1576134)"><tspan
     y="278.33868"
     x="23.074806"
     id="tspan12989"
     sodipodi:role="line"
     style="font-size:13.82154083px;line-height:1;stroke-width:0.8638463px">0.6</tspan></text>

<text
   id="text12991"
   y="148.26683"
   x="23.149044"
   style="font-style:normal;font-variant:normal;font-weight:normal;font-stretch:normal;font-size:10.36615562px;line-height:0%;font-family:'Bitstream Vera Sans';-inkscape-font-specification:'Bitstream Vera Sans';text-align:center;writing-mode:lr-tb;text-anchor:middle;fill:#000000;fill-opacity:1;stroke:none;stroke-width:0.8638463px;stroke-linecap:butt;stroke-linejoin:miter;stroke-opacity:1"
   xml:space="preserve"
   transform="scale(0.86384626,1.1576134)"><tspan
     y="148.26683"
     x="23.149044"
     id="tspan12993"
     sodipodi:role="line"
     style="font-size:13.82154083px;line-height:1;stroke-width:0.8638463px">0.8</tspan></text>

<text
   id="text12995"
   y="18.195009"
   x="23.122049"
   style="font-style:normal;font-variant:normal;font-weight:normal;font-stretch:normal;font-size:10.36615562px;line-height:0%;font-family:'Bitstream Vera Sans';-inkscape-font-specification:'Bitstream Vera Sans';text-align:center;writing-mode:lr-tb;text-anchor:middle;fill:#000000;fill-opacity:1;stroke:none;stroke-width:0.8638463px;stroke-linecap:butt;stroke-linejoin:miter;stroke-opacity:1"
   xml:space="preserve"
   transform="scale(0.86384626,1.1576134)"><tspan
     y="18.195009"
     x="23.122049"
     id="tspan12997"
     sodipodi:role="line"
     style="font-size:13.82154083px;line-height:1;stroke-width:0.8638463px">1.0</tspan></text>

<path
   id="path13019"
   style="display:inline;overflow:visible;visibility:visible;opacity:1;fill:none;fill-opacity:1;fill-rule:evenodd;stroke:#000000;stroke-width:0.8638463;stroke-linecap:butt;stroke-linejoin:round;stroke-miterlimit:10.43299961;stroke-dasharray:none;stroke-dashoffset:5.5;stroke-opacity:1;marker:none;marker-start:url(#DotM);marker-mid:none;marker-end:none;enable-background:accumulate"
   d="m -74.146442,221.99316 v 0"
   sodipodi:nodetypes="cc"
   inkscape:connector-curvature="0" /></svg>