<?xml version="1.0" encoding="UTF-8" standalone="no"?>
<!DOCTYPE svg PUBLIC "-//W3C//DTD SVG 1.1//EN" "http://www.w3.org/Graphics/SVG/1.1/DTD/svg11.dtd">
<!-- Generated by graphviz version 2.28.0 (20110626.0922)
 -->
<!-- Title: _anonymous_0 Pages: 1 -->
<svg width="759pt" height="260pt" viewBox="0.00 0.00 759.00 260.00" xmlns="http://www.w3.org/2000/svg" xmlns:xlink="http://www.w3.org/1999/xlink">
<g id="graph1" class="graph" transform="scale(1 1) rotate(0) translate(4 256)">
<title>_anonymous_0</title>
<polygon fill="white" stroke="white" points="-4,5 -4,-256 756,-256 756,5 -4,5"/>
<!-- Functor -->
<g id="node1" class="node"><title>Functor</title>
<polygon fill="none" stroke="black" points="130.25,-252 69.75,-252 69.75,-216 130.25,-216 130.25,-252"/>
<text text-anchor="middle" x="100" y="-230.3" font-family="Times,serif" font-size="14.00">Functor</text>
</g>
<!-- Applicative -->
<g id="node3" class="node"><title>Applicative</title>
<polygon fill="none" stroke="black" points="230,-180 150,-180 150,-144 230,-144 230,-180"/>
<text text-anchor="middle" x="190" y="-158.3" font-family="Times,serif" font-size="14.00">Applicative</text>
</g>
<!-- Functor&#45;&gt;Applicative -->
<g id="edge2" class="edge"><title>Functor-&gt;Applicative</title>
<path fill="none" stroke="black" d="M122.247,-215.697C133.582,-206.881 147.53,-196.032 159.819,-186.474"/>
<polygon fill="black" stroke="black" points="162.264,-189.007 168.009,-180.104 157.966,-183.481 162.264,-189.007"/>
</g>
<!-- Traversable -->
<g id="node36" class="node"><title>Traversable</title>
<polygon fill="none" stroke="black" points="178.25,-36 97.75,-36 97.75,-0 178.25,-0 178.25,-36"/>
<text text-anchor="middle" x="138" y="-14.3" font-family="Times,serif" font-size="14.00">Traversable</text>
</g>
<!-- Functor&#45;&gt;Traversable -->
<g id="edge42" class="edge"><title>Functor-&gt;Traversable</title>
<path fill="none" stroke="black" d="M103.045,-215.849C109.633,-178.753 125.249,-90.8101 133.187,-46.1027"/>
<polygon fill="black" stroke="black" points="136.638,-46.6904 134.94,-36.2325 129.746,-45.4665 136.638,-46.6904"/>
</g>
<!-- Comonad -->
<g id="node39" class="node"><title>Comonad</title>
<polygon fill="none" stroke="grey" points="72,-180 0,-180 0,-144 72,-144 72,-180"/>
<text text-anchor="middle" x="36" y="-158.3" font-family="Times,serif" font-size="14.00">Comonad</text>
</g>
<!-- Functor&#45;&gt;Comonad -->
<g id="edge44" class="edge"><title>Functor-&gt;Comonad</title>
<path fill="none" stroke="black" d="M84.1798,-215.697C76.4295,-207.22 66.961,-196.864 58.4755,-187.583"/>
<polygon fill="black" stroke="black" points="60.9691,-185.123 51.6382,-180.104 55.8029,-189.846 60.9691,-185.123"/>
</g>
<!-- Monad -->
<g id="node4" class="node"><title>Monad</title>
<polygon fill="none" stroke="black" points="399.5,-108 344.5,-108 344.5,-72 399.5,-72 399.5,-108"/>
<text text-anchor="middle" x="372" y="-86.3" font-family="Times,serif" font-size="14.00">Monad</text>
</g>
<!-- Applicative&#45;&gt;Monad -->
<g id="edge3" class="edge"><title>Applicative-&gt;Monad</title>
<path fill="none" stroke="black" d="M230.008,-147.098C259.061,-136.804 299.211,-122.165 334,-108 334.314,-107.872 334.629,-107.743 334.945,-107.614"/>
<polygon fill="black" stroke="black" points="336.439,-110.782 344.284,-103.661 333.711,-104.336 336.439,-110.782"/>
</g>
<!-- Alternative -->
<g id="node8" class="node"><title>Alternative</title>
<polygon fill="none" stroke="black" points="242,-108 166,-108 166,-72 242,-72 242,-108"/>
<text text-anchor="middle" x="204" y="-86.3" font-family="Times,serif" font-size="14.00">Alternative</text>
</g>
<!-- Applicative&#45;&gt;Alternative -->
<g id="edge7" class="edge"><title>Applicative-&gt;Alternative</title>
<path fill="none" stroke="black" d="M193.461,-143.697C195.003,-135.983 196.858,-126.712 198.578,-118.112"/>
<polygon fill="black" stroke="black" points="202.05,-118.597 200.579,-108.104 195.186,-117.224 202.05,-118.597"/>
</g>
<!-- Applicative&#45;&gt;Traversable -->
<g id="edge38" class="edge"><title>Applicative-&gt;Traversable</title>
<path fill="none" stroke="black" stroke-dasharray="1,5" d="M177.068,-143.677C170.186,-133.702 162.112,-120.665 157,-108 148.98,-88.1298 144.125,-64.3345 141.333,-46.3496"/>
<polygon fill="black" stroke="black" points="144.768,-45.6499 139.884,-36.2478 137.839,-46.6433 144.768,-45.6499"/>
</g>
<!-- MonadPlus -->
<g id="node10" class="node"><title>MonadPlus</title>
<polygon fill="none" stroke="black" points="412,-36 332,-36 332,-0 412,-0 412,-36"/>
<text text-anchor="middle" x="372" y="-14.3" font-family="Times,serif" font-size="14.00">MonadPlus</text>
</g>
<!-- Monad&#45;&gt;MonadPlus -->
<g id="edge9" class="edge"><title>Monad-&gt;MonadPlus</title>
<path fill="none" stroke="black" d="M372,-71.6966C372,-63.9827 372,-54.7125 372,-46.1124"/>
<polygon fill="black" stroke="black" points="375.5,-46.1043 372,-36.1043 368.5,-46.1044 375.5,-46.1043"/>
</g>
<!-- MonadFix -->
<g id="node12" class="node"><title>MonadFix</title>
<polygon fill="none" stroke="black" points="314,-36 240,-36 240,-0 314,-0 314,-36"/>
<text text-anchor="middle" x="277" y="-14.3" font-family="Times,serif" font-size="14.00">MonadFix</text>
</g>
<!-- Monad&#45;&gt;MonadFix -->
<g id="edge11" class="edge"><title>Monad-&gt;MonadFix</title>
<path fill="none" stroke="black" d="M348.517,-71.6966C336.437,-62.796 321.546,-51.8232 308.484,-42.1989"/>
<polygon fill="black" stroke="black" points="310.34,-39.2187 300.213,-36.1043 306.187,-44.8541 310.34,-39.2187"/>
</g>
<!-- ArrowApply -->
<g id="node23" class="node"><title>ArrowApply</title>
<polygon fill="none" stroke="black" points="517.25,-36 430.75,-36 430.75,-0 517.25,-0 517.25,-36"/>
<text text-anchor="middle" x="474" y="-14.3" font-family="Times,serif" font-size="14.00">ArrowApply</text>
</g>
<!-- Monad&#45;&gt;ArrowApply -->
<g id="edge32" class="edge"><title>Monad-&gt;ArrowApply</title>
<path fill="none" stroke="black" stroke-width="4" d="M396.952,-71.8761C410.042,-62.8931 426.26,-51.7625 440.436,-42.0341"/>
<polygon fill="black" stroke="black" points="442.687,-44.734 448.952,-36.1898 438.726,-38.9624 442.687,-44.734"/>
</g>
<!-- Apply -->
<g id="node5" class="node"><title>Apply</title>
<polygon fill="none" stroke="grey" points="217,-252 163,-252 163,-216 217,-216 217,-252"/>
<text text-anchor="middle" x="190" y="-230.3" font-family="Times,serif" font-size="14.00">Apply</text>
</g>
<!-- Apply&#45;&gt;Applicative -->
<g id="edge5" class="edge"><title>Apply-&gt;Applicative</title>
<path fill="none" stroke="black" d="M190,-215.697C190,-207.983 190,-198.712 190,-190.112"/>
<polygon fill="black" stroke="black" points="193.5,-190.104 190,-180.104 186.5,-190.104 193.5,-190.104"/>
</g>
<!-- Semigroup -->
<g id="node13" class="node"><title>Semigroup</title>
<polygon fill="none" stroke="grey" points="410.25,-252 333.75,-252 333.75,-216 410.25,-216 410.25,-252"/>
<text text-anchor="middle" x="372" y="-230.3" font-family="Times,serif" font-size="14.00">Semigroup</text>
</g>
<!-- Monoid -->
<g id="node15" class="node"><title>Monoid</title>
<polygon fill="none" stroke="black" points="402.25,-180 341.75,-180 341.75,-144 402.25,-144 402.25,-180"/>
<text text-anchor="middle" x="372" y="-158.3" font-family="Times,serif" font-size="14.00">Monoid</text>
</g>
<!-- Semigroup&#45;&gt;Monoid -->
<g id="edge13" class="edge"><title>Semigroup-&gt;Monoid</title>
<path fill="none" stroke="black" d="M372,-215.697C372,-207.983 372,-198.712 372,-190.112"/>
<polygon fill="black" stroke="black" points="375.5,-190.104 372,-180.104 368.5,-190.104 375.5,-190.104"/>
</g>
<!-- Monoid&#45;&gt;Monad -->
<g id="edge36" class="edge"><title>Monoid-&gt;Monad</title>
<path fill="none" stroke="black" stroke-dasharray="1,5" d="M372,-143.697C372,-135.983 372,-126.712 372,-118.112"/>
<polygon fill="black" stroke="black" points="375.5,-118.104 372,-108.104 368.5,-118.104 375.5,-118.104"/>
</g>
<!-- Monoid&#45;&gt;Alternative -->
<g id="edge15" class="edge"><title>Monoid-&gt;Alternative</title>
<path fill="none" stroke="black" stroke-dasharray="1,5" d="M341.576,-148.324C316.515,-137.881 280.534,-122.889 251.654,-110.856"/>
<polygon fill="black" stroke="black" points="252.736,-107.515 242.159,-106.899 250.043,-113.976 252.736,-107.515"/>
</g>
<!-- Monoid&#45;&gt;MonadPlus -->
<g id="edge17" class="edge"><title>Monoid-&gt;MonadPlus</title>
<path fill="none" stroke="black" stroke-dasharray="1,5" d="M387.61,-143.774C395.373,-134.03 403.946,-121.184 408,-108 412.703,-92.7067 412.703,-87.2933 408,-72 404.991,-62.2153 399.493,-52.6161 393.684,-44.3336"/>
<polygon fill="black" stroke="black" points="396.407,-42.1306 387.61,-36.2264 390.805,-46.3279 396.407,-42.1306"/>
</g>
<!-- ArrowPlus -->
<g id="node28" class="node"><title>ArrowPlus</title>
<polygon fill="none" stroke="black" points="751.25,-108 674.75,-108 674.75,-72 751.25,-72 751.25,-108"/>
<text text-anchor="middle" x="713" y="-86.3" font-family="Times,serif" font-size="14.00">ArrowPlus</text>
</g>
<!-- Monoid&#45;&gt;ArrowPlus -->
<g id="edge30" class="edge"><title>Monoid-&gt;ArrowPlus</title>
<path fill="none" stroke="black" stroke-dasharray="1,5" d="M402.688,-156.095C467.314,-145.659 615.539,-121.14 665,-108 665.099,-107.974 665.198,-107.947 665.297,-107.921"/>
<polygon fill="black" stroke="black" points="666.037,-111.351 674.659,-105.193 664.079,-104.63 666.037,-111.351"/>
</g>
<!-- Foldable -->
<g id="node33" class="node"><title>Foldable</title>
<polygon fill="none" stroke="black" points="325.25,-108 260.75,-108 260.75,-72 325.25,-72 325.25,-108"/>
<text text-anchor="middle" x="293" y="-86.3" font-family="Times,serif" font-size="14.00">Foldable</text>
</g>
<!-- Monoid&#45;&gt;Foldable -->
<g id="edge34" class="edge"><title>Monoid-&gt;Foldable</title>
<path fill="none" stroke="black" stroke-dasharray="1,5" d="M352.472,-143.697C342.618,-134.965 330.514,-124.24 319.804,-114.75"/>
<polygon fill="black" stroke="black" points="322.109,-112.117 312.303,-108.104 317.467,-117.356 322.109,-112.117"/>
</g>
<!-- Category -->
<g id="node18" class="node"><title>Category</title>
<polygon fill="none" stroke="black" points="566,-180 498,-180 498,-144 566,-144 566,-180"/>
<text text-anchor="middle" x="532" y="-158.3" font-family="Times,serif" font-size="14.00">Category</text>
</g>
<!-- Arrow -->
<g id="node20" class="node"><title>Arrow</title>
<polygon fill="none" stroke="black" points="559,-108 505,-108 505,-72 559,-72 559,-108"/>
<text text-anchor="middle" x="532" y="-86.3" font-family="Times,serif" font-size="14.00">Arrow</text>
</g>
<!-- Category&#45;&gt;Arrow -->
<g id="edge19" class="edge"><title>Category-&gt;Arrow</title>
<path fill="none" stroke="black" d="M532,-143.697C532,-135.983 532,-126.712 532,-118.112"/>
<polygon fill="black" stroke="black" points="535.5,-118.104 532,-108.104 528.5,-118.104 535.5,-118.104"/>
</g>
<!-- ArrowChoice -->
<g id="node21" class="node"><title>ArrowChoice</title>
<polygon fill="none" stroke="black" points="628,-36 536,-36 536,-0 628,-0 628,-36"/>
<text text-anchor="middle" x="582" y="-14.3" font-family="Times,serif" font-size="14.00">ArrowChoice</text>
</g>
<!-- Arrow&#45;&gt;ArrowChoice -->
<g id="edge20" class="edge"><title>Arrow-&gt;ArrowChoice</title>
<path fill="none" stroke="black" d="M544.36,-71.6966C550.233,-63.4741 557.369,-53.4832 563.842,-44.4207"/>
<polygon fill="black" stroke="black" points="566.818,-46.276 569.783,-36.1043 561.122,-42.2073 566.818,-46.276"/>
</g>
<!-- Arrow&#45;&gt;ArrowApply -->
<g id="edge22" class="edge"><title>Arrow-&gt;ArrowApply</title>
<path fill="none" stroke="black" d="M517.663,-71.6966C510.709,-63.3046 502.23,-53.0705 494.599,-43.8613"/>
<polygon fill="black" stroke="black" points="497.247,-41.5715 488.172,-36.1043 491.857,-46.0376 497.247,-41.5715"/>
</g>
<!-- ArrowLoop -->
<g id="node25" class="node"><title>ArrowLoop</title>
<polygon fill="none" stroke="black" points="729.25,-36 646.75,-36 646.75,-0 729.25,-0 729.25,-36"/>
<text text-anchor="middle" x="688" y="-14.3" font-family="Times,serif" font-size="14.00">ArrowLoop</text>
</g>
<!-- Arrow&#45;&gt;ArrowLoop -->
<g id="edge24" class="edge"><title>Arrow-&gt;ArrowLoop</title>
<path fill="none" stroke="black" d="M559.061,-76.5223C562.406,-74.9932 565.78,-73.4569 569,-72 592.334,-61.4436 618.31,-49.8557 640.024,-40.2145"/>
<polygon fill="black" stroke="black" points="641.64,-43.3265 649.362,-36.0718 638.802,-36.9279 641.64,-43.3265"/>
</g>
<!-- ArrowZero -->
<g id="node27" class="node"><title>ArrowZero</title>
<polygon fill="none" stroke="black" points="656.25,-108 577.75,-108 577.75,-72 656.25,-72 656.25,-108"/>
<text text-anchor="middle" x="617" y="-86.3" font-family="Times,serif" font-size="14.00">ArrowZero</text>
</g>
<!-- Arrow&#45;&gt;ArrowZero -->
<g id="edge26" class="edge"><title>Arrow-&gt;ArrowZero</title>
<path fill="none" stroke="black" d="M559.227,-90C562.022,-90 564.817,-90 567.612,-90"/>
<polygon fill="black" stroke="black" points="567.732,-93.5001 577.732,-90 567.732,-86.5001 567.732,-93.5001"/>
</g>
<!-- ArrowZero&#45;&gt;ArrowPlus -->
<g id="edge27" class="edge"><title>ArrowZero-&gt;ArrowPlus</title>
<path fill="none" stroke="black" d="M656.375,-90C659.02,-90 661.665,-90 664.31,-90"/>
<polygon fill="black" stroke="black" points="664.513,-93.5001 674.513,-90 664.513,-86.5001 664.513,-93.5001"/>
</g>
<!-- Foldable&#45;&gt;Traversable -->
<g id="edge40" class="edge"><title>Foldable-&gt;Traversable</title>
<path fill="none" stroke="black" d="M260.507,-74.3257C238.72,-64.4867 209.672,-51.3681 185.33,-40.3747"/>
<polygon fill="black" stroke="black" points="186.467,-37.048 175.913,-36.1218 183.586,-43.4276 186.467,-37.048"/>
</g>
</g>
</svg>