<?xml version="1.0" encoding="UTF-8" standalone="no"?>
<!DOCTYPE svg PUBLIC "-//W3C//DTD SVG 1.0//EN" "http://www.w3.org/TR/2001/REC-SVG-20010904/DTD/svg10.dtd">
<!-- Generated by dot version 2.6 (Sun Aug 28 13:14:52 UTC 2005)
     For user: Bill Gates -->
<!-- Title: untitl Pages: 1 -->
<svg width="282pt" height="158pt" viewBox="0 0 282 158" xmlns="http://www.w3.org/2000/svg" xmlns:xlink="http://www.w3.org/1999/xlink">
<g id="graph0" class="graph" style="font-family:Times-Roman;font-size:14.00;">
<title>untitl</title>
<!-- B -->
<g id="node2" class="node"><title>B</title>
<ellipse style="fill:pink;stroke:black;stroke-width:2;" cx="103" cy="79" rx="17" ry="17"/>
<text text-anchor="middle" x="103" y="83" style="font-family:Helvetica-Bold;font-size:12.00;">B</text>
</g>
<!-- C -->
<g id="node7" class="node"><title>C</title>
<ellipse style="fill:pink;stroke:black;stroke-width:2;" cx="259" cy="79" rx="17" ry="17"/>
<text text-anchor="middle" x="259" y="83" style="font-family:Helvetica-Bold;font-size:12.00;">C</text>
</g>
<!-- B&#45;&gt;C -->
<g id="edge5" class="edge"><title>B-&gt;C</title>
<path style="fill:none;stroke:black;stroke-width:3;" d="M116,67C121,62 129,57 136,54 174,41 189,41 226,54 231,56 235,58 239,61"/>
<polygon style="fill:black;stroke:black;" points="241,58 247,67 237,64 241,58"/>
<text text-anchor="middle" x="181" y="41" style="font-family:Helvetica-Bold;font-size:18.00;">2</text>
</g>
<!-- E -->
<g id="node9" class="node"><title>E</title>
<ellipse style="fill:pink;stroke:black;stroke-width:2;" cx="181" cy="79" rx="17" ry="17"/>
<text text-anchor="middle" x="181" y="83" style="font-family:Helvetica-Bold;font-size:12.00;">E</text>
</g>
<!-- B&#45;&gt;E -->
<g id="edge7" class="edge"><title>B-&gt;E</title>
<path style="fill:none;stroke:red;stroke-width:3;" d="M121,79C131,79 143,79 153,79"/>
<polygon style="fill:red;stroke:red;" points="153,75 163,79 153,82 153,75"/>
<text text-anchor="middle" x="142" y="75" style="font-family:Helvetica-Bold;font-size:18.00;">1</text>
</g>
<!-- D -->
<g id="node3" class="node"><title>D</title>
<ellipse style="fill:pink;stroke:black;stroke-width:2;" cx="103" cy="133" rx="17" ry="17"/>
<text text-anchor="middle" x="103" y="137" style="font-family:Helvetica-Bold;font-size:12.00;">D</text>
</g>
<!-- D&#45;&gt;C -->
<g id="edge13" class="edge"><title>D-&gt;C</title>
<path style="fill:none;stroke:black;stroke-width:3;" d="M121,135C140,136 174,136 199,126 214,120 229,109 239,99"/>
<polygon style="fill:black;stroke:black;" points="237,96 247,92 242,101 237,96"/>
<text text-anchor="middle" x="181" y="121" style="font-family:Helvetica-Bold;font-size:18.00;">3</text>
</g>
<!-- A -->
<g id="node4" class="node"><title>A</title>
<ellipse style="fill:pink;stroke:black;stroke-width:2;" cx="24" cy="105" rx="17" ry="18"/>
<text text-anchor="middle" x="24" y="109" style="font-family:Helvetica-Bold;font-size:12.00;">A</text>
</g>
<!-- A&#45;&gt;B -->
<g id="edge3" class="edge"><title>A-&gt;B</title>
<path style="fill:none;stroke:red;stroke-width:3;" d="M42,99C52,96 65,92 76,88"/>
<polygon style="fill:red;stroke:red;" points="75,85 86,85 77,91 75,85"/>
<text text-anchor="middle" x="64" y="87" style="font-family:Helvetica-Bold;font-size:18.00;">3</text>
</g>
<!-- A&#45;&gt;D -->
<g id="edge11" class="edge"><title>A-&gt;D</title>
<path style="fill:none;stroke:black;stroke-width:3;" d="M41,113C46,116 52,119 58,121 64,123 70,125 76,127"/>
<polygon style="fill:black;stroke:black;" points="77,124 86,129 76,130 77,124"/>
<text text-anchor="middle" x="64" y="114" style="font-family:Helvetica-Bold;font-size:18.00;">2</text>
</g>
<!-- E&#45;&gt;C -->
<g id="edge9" class="edge"><title>E-&gt;C</title>
<path style="fill:none;stroke:red;stroke-width:3;" d="M199,79C209,79 221,79 231,79"/>
<polygon style="fill:red;stroke:red;" points="231,75 241,79 231,82 231,75"/>
<text text-anchor="middle" x="220" y="75" style="font-family:Helvetica-Bold;font-size:18.00;">3</text>
</g>
</g>
</svg>