<?xml version="1.0" encoding="UTF-8" standalone="no"?>
<svg
   xmlns:dc="http://purl.org/dc/elements/1.1/"
   xmlns:cc="http://creativecommons.org/ns#"
   xmlns:rdf="http://www.w3.org/1999/02/22-rdf-syntax-ns#"
   xmlns:svg="http://www.w3.org/2000/svg"
   xmlns="http://www.w3.org/2000/svg"
   xmlns:sodipodi="http://sodipodi.sourceforge.net/DTD/sodipodi-0.dtd"
   xmlns:inkscape="http://www.inkscape.org/namespaces/inkscape"
   width="500"
   height="560"
   version="1.1"
   id="svg3813"
   sodipodi:docname="TP_git_branches_7.svg"
   viewBox="0 0 400 448"
   inkscape:version="0.92.4 (5da689c313, 2019-01-14)">
  <metadata
     id="metadata3819">
    <rdf:RDF>
      <cc:Work
         rdf:about="">
        <dc:format>image/svg+xml</dc:format>
        <dc:type
           rdf:resource="http://purl.org/dc/dcmitype/StillImage" />
        <dc:title></dc:title>
      </cc:Work>
    </rdf:RDF>
  </metadata>
  <defs
     id="defs3817" />
  <sodipodi:namedview
     pagecolor="#ffffff"
     bordercolor="#666666"
     borderopacity="1"
     objecttolerance="10"
     gridtolerance="10"
     guidetolerance="10"
     inkscape:pageopacity="0"
     inkscape:pageshadow="2"
     inkscape:window-width="640"
     inkscape:window-height="480"
     id="namedview3815"
     showgrid="false"
     scale-x="0.8"
     inkscape:pagecheckerboard="true"
     inkscape:zoom="0.91666667"
     inkscape:cx="140.39709"
     inkscape:cy="294.0743"
     inkscape:current-layer="svg3813" />
  <g
     transform="translate(0,178.98182)"
     id="g3811">
    <defs
       id="defs3767">
      <marker
         id="head"
         orient="auto"
         markerWidth="4"
         markerHeight="8"
         refX="0.2"
         refY="3">
        <path
           d="M 0,0 V 6 L 3,3 Z"
           id="path3764"
           inkscape:connector-curvature="0" />
      </marker>
    </defs>
    <circle
       cx="50"
       cy="50"
       r="30"
       id="circle3769"
       style="fill:#90ee90;stroke:#000000;stroke-width:2" />
    <circle
       cx="150"
       cy="50"
       r="30"
       id="circle3771"
       style="fill:#90ee90;stroke:#000000;stroke-width:2" />
    <circle
       cx="250"
       cy="50"
       r="30"
       id="circle3773"
       style="fill:#90ee90;stroke:#000000;stroke-width:2" />
    <circle
       cx="350"
       cy="50"
       r="30"
       id="circle3775"
       style="fill:#90ee90;stroke:#000000;stroke-width:2" />
    <path
       d="m 80,50 h 40"
       id="path3777"
       inkscape:connector-curvature="0"
       style="stroke:#000000;stroke-width:2" />
    <path
       d="m 180,50 h 40"
       id="path3779"
       inkscape:connector-curvature="0"
       style="stroke:#000000;stroke-width:2" />
    <path
       d="m 280,50 h 40"
       id="path3781"
       inkscape:connector-curvature="0"
       style="stroke:#000000;stroke-width:2" />
    <rect
       x="310"
       y="-70"
       width="80"
       height="40"
       id="rect3783"
       style="fill:#ffa500;stroke:#000000;stroke-width:2" />
    <text
       x="320"
       y="-45"
       font-size="18"
       id="text3785"
       style="font-size:18px">master</text>
    <path
       d="M 350,-30 V 10"
       id="path3787"
       inkscape:connector-curvature="0"
       style="stroke:#000000;stroke-width:2;marker-end:url(#head)" />
    <circle
       cx="250"
       cy="-50"
       r="30"
       id="circle3789"
       style="fill:#90ee90;stroke:#000000;stroke-width:2" />
    <path
       d="m 150,20 c 0,-70 60,-70 70,-70"
       id="path3791"
       inkscape:connector-curvature="0"
       style="fill:none;stroke:#000000;stroke-width:2" />
    <rect
       x="225"
       y="-170"
       width="50"
       height="40"
       id="rect3793"
       style="fill:#f0e68c;stroke:#000000;stroke-width:2" />
    <text
       x="240"
       y="-145"
       font-size="18"
       id="text3795"
       style="font-size:18px">cli</text>
    <path
       d="m 250,-130 v 40"
       id="path3797"
       inkscape:connector-curvature="0"
       style="stroke:#000000;stroke-width:2;marker-end:url(#head)" />
    <circle
       cx="250"
       cy="150"
       r="30"
       id="circle3799"
       style="fill:#90ee90;stroke:#000000;stroke-width:2" />
    <path
       d="m 150,80 c 0,70 60,70 70,70"
       id="path3801"
       inkscape:connector-curvature="0"
       style="fill:none;stroke:#000000;stroke-width:2" />
    <path
       d="m 280,150 c 0,0 70,0 70,-70"
       id="path3803"
       inkscape:connector-curvature="0"
       style="fill:none;stroke:#000000;stroke-width:2" />
    <rect
       x="225"
       y="220"
       width="50"
       height="40"
       id="rect3805"
       style="fill:#f0e68c;stroke:#000000;stroke-width:2" />
    <text
       x="240"
       y="245"
       font-size="18"
       id="text3807"
       style="font-size:18px">es</text>
    <path
       d="M 250,220 V 190"
       id="path3809"
       inkscape:connector-curvature="0"
       style="stroke:#000000;stroke-width:2;marker-end:url(#head)" />
  </g>
</svg>
