<?xml version="1.0" encoding="utf-8"  standalone="no"?>
<!DOCTYPE svg PUBLIC "-//W3C//DTD SVG 1.1//EN"
 "http://www.w3.org/Graphics/SVG/1.1/DTD/svg11.dtd">
<svg 
 width="640" height="360"
 viewBox="0 0 640 360"
 xmlns="http://www.w3.org/2000/svg"
 xmlns:xlink="http://www.w3.org/1999/xlink"
>

<title>Gnuplot</title>
<desc>Produced by GNUPLOT 5.0 patchlevel 0 </desc>

<g id="gnuplot_canvas">

<rect x="0" y="0" width="640" height="360" fill="none"/>
<defs>

	<circle id='gpDot' r='0.5' stroke-width='0.5'/>
	<path id='gpPt0' stroke-width='0.333' stroke='currentColor' d='M-1,0 h2 M0,-1 v2'/>
	<path id='gpPt1' stroke-width='0.333' stroke='currentColor' d='M-1,-1 L1,1 M1,-1 L-1,1'/>
	<path id='gpPt2' stroke-width='0.333' stroke='currentColor' d='M-1,0 L1,0 M0,-1 L0,1 M-1,-1 L1,1 M-1,1 L1,-1'/>
	<rect id='gpPt3' stroke-width='0.333' stroke='currentColor' x='-1' y='-1' width='2' height='2'/>
	<rect id='gpPt4' stroke-width='0.333' stroke='currentColor' fill='currentColor' x='-1' y='-1' width='2' height='2'/>
	<circle id='gpPt5' stroke-width='0.333' stroke='currentColor' cx='0' cy='0' r='1'/>
	<use xlink:href='#gpPt5' id='gpPt6' fill='currentColor' stroke='none'/>
	<path id='gpPt7' stroke-width='0.333' stroke='currentColor' d='M0,-1.33 L-1.33,0.67 L1.33,0.67 z'/>
	<use xlink:href='#gpPt7' id='gpPt8' fill='currentColor' stroke='none'/>
	<use xlink:href='#gpPt7' id='gpPt9' stroke='currentColor' transform='rotate(180)'/>
	<use xlink:href='#gpPt9' id='gpPt10' fill='currentColor' stroke='none'/>
	<use xlink:href='#gpPt3' id='gpPt11' stroke='currentColor' transform='rotate(45)'/>
	<use xlink:href='#gpPt11' id='gpPt12' fill='currentColor' stroke='none'/>
	<path id='gpPt13' stroke-width='0.333' stroke='currentColor' d='M0,1.330 L1.265,0.411 L0.782,-1.067 L-0.782,-1.076 L-1.265,0.411 z'/>
	<use xlink:href='#gpPt13' id='gpPt14' fill='currentColor' stroke='none'/>
	<filter id='textbox' filterUnits='objectBoundingBox' x='0' y='0' height='1' width='1'>
	  <feFlood flood-color='white' flood-opacity='1' result='bgnd'/>
	  <feComposite in='SourceGraphic' in2='bgnd' operator='atop'/>
	</filter>
	<filter id='greybox' filterUnits='objectBoundingBox' x='0' y='0' height='1' width='1'>
	  <feFlood flood-color='lightgrey' flood-opacity='1' result='grey'/>
	  <feComposite in='SourceGraphic' in2='grey' operator='atop'/>
	</filter>
</defs>
<g fill="none" color="white" stroke="currentColor" stroke-width="1.00" stroke-linecap="butt" stroke-linejoin="miter">
</g>
<g fill="none" color="black" stroke="currentColor" stroke-width="1.00" stroke-linecap="butt" stroke-linejoin="miter">
	<g stroke='none' shape-rendering='crispEdges'>
		<polygon fill = 'rgb(255, 255, 255)' points = '30.8,336.0 623.0,336.0 623.0,11.4 30.8,11.4 '/>
	</g>
</g>
<g fill="none" color="black" stroke="rgb(255, 255, 255)" stroke-width="0.50" stroke-linecap="butt" stroke-linejoin="miter">
</g>
<g fill="none" color="black" stroke="currentColor" stroke-width="0.50" stroke-linecap="butt" stroke-linejoin="miter">
</g>
<g fill="none" color="gray" stroke="currentColor" stroke-width="0.50" stroke-linecap="butt" stroke-linejoin="miter">
	<path stroke='gray' stroke-dasharray='2,4' class="gridline"  d='M30.8,336.0 L623.1,336.0  '/></g>
<g fill="none" color="black" stroke="currentColor" stroke-width="0.50" stroke-linecap="butt" stroke-linejoin="miter">
	<path stroke='black'  d='M30.8,336.0 L39.2,336.0 M623.1,336.0 L614.7,336.0  '/>	<g transform="translate(25.2,339.7)" stroke="none" fill="rgb(0,0,0)" font-family="{}" font-size="10.00"  text-anchor="end">
		<text><tspan font-family="{}" >0</tspan></text>
	</g>
</g>
<g fill="none" color="black" stroke="currentColor" stroke-width="0.50" stroke-linecap="butt" stroke-linejoin="miter">
</g>
<g fill="none" color="gray" stroke="currentColor" stroke-width="0.50" stroke-linecap="butt" stroke-linejoin="miter">
	<path stroke='gray' stroke-dasharray='2,4' class="gridline"  d='M30.8,289.6 L623.1,289.6  '/></g>
<g fill="none" color="black" stroke="currentColor" stroke-width="0.50" stroke-linecap="butt" stroke-linejoin="miter">
	<path stroke='black'  d='M30.8,289.6 L39.2,289.6 M623.1,289.6 L614.7,289.6  '/>	<g transform="translate(25.2,293.3)" stroke="none" fill="rgb(0,0,0)" font-family="{}" font-size="10.00"  text-anchor="end">
		<text><tspan font-family="{}" >0.2</tspan></text>
	</g>
</g>
<g fill="none" color="black" stroke="currentColor" stroke-width="0.50" stroke-linecap="butt" stroke-linejoin="miter">
</g>
<g fill="none" color="gray" stroke="currentColor" stroke-width="0.50" stroke-linecap="butt" stroke-linejoin="miter">
	<path stroke='gray' stroke-dasharray='2,4' class="gridline"  d='M30.8,243.2 L623.1,243.2  '/></g>
<g fill="none" color="black" stroke="currentColor" stroke-width="0.50" stroke-linecap="butt" stroke-linejoin="miter">
	<path stroke='black'  d='M30.8,243.2 L39.2,243.2 M623.1,243.2 L614.7,243.2  '/>	<g transform="translate(25.2,246.9)" stroke="none" fill="rgb(0,0,0)" font-family="{}" font-size="10.00"  text-anchor="end">
		<text><tspan font-family="{}" >0.4</tspan></text>
	</g>
</g>
<g fill="none" color="black" stroke="currentColor" stroke-width="0.50" stroke-linecap="butt" stroke-linejoin="miter">
</g>
<g fill="none" color="gray" stroke="currentColor" stroke-width="0.50" stroke-linecap="butt" stroke-linejoin="miter">
	<path stroke='gray' stroke-dasharray='2,4' class="gridline"  d='M30.8,196.8 L623.1,196.8  '/></g>
<g fill="none" color="black" stroke="currentColor" stroke-width="0.50" stroke-linecap="butt" stroke-linejoin="miter">
	<path stroke='black'  d='M30.8,196.8 L39.2,196.8 M623.1,196.8 L614.7,196.8  '/>	<g transform="translate(25.2,200.5)" stroke="none" fill="rgb(0,0,0)" font-family="{}" font-size="10.00"  text-anchor="end">
		<text><tspan font-family="{}" >0.6</tspan></text>
	</g>
</g>
<g fill="none" color="black" stroke="currentColor" stroke-width="0.50" stroke-linecap="butt" stroke-linejoin="miter">
</g>
<g fill="none" color="gray" stroke="currentColor" stroke-width="0.50" stroke-linecap="butt" stroke-linejoin="miter">
	<path stroke='gray' stroke-dasharray='2,4' class="gridline"  d='M30.8,150.5 L623.1,150.5  '/></g>
<g fill="none" color="black" stroke="currentColor" stroke-width="0.50" stroke-linecap="butt" stroke-linejoin="miter">
	<path stroke='black'  d='M30.8,150.5 L39.2,150.5 M623.1,150.5 L614.7,150.5  '/>	<g transform="translate(25.2,154.2)" stroke="none" fill="rgb(0,0,0)" font-family="{}" font-size="10.00"  text-anchor="end">
		<text><tspan font-family="{}" >0.8</tspan></text>
	</g>
</g>
<g fill="none" color="black" stroke="currentColor" stroke-width="0.50" stroke-linecap="butt" stroke-linejoin="miter">
</g>
<g fill="none" color="gray" stroke="currentColor" stroke-width="0.50" stroke-linecap="butt" stroke-linejoin="miter">
	<path stroke='gray' stroke-dasharray='2,4' class="gridline"  d='M30.8,104.1 L623.1,104.1  '/></g>
<g fill="none" color="black" stroke="currentColor" stroke-width="0.50" stroke-linecap="butt" stroke-linejoin="miter">
	<path stroke='black'  d='M30.8,104.1 L39.2,104.1 M623.1,104.1 L614.7,104.1  '/>	<g transform="translate(25.2,107.8)" stroke="none" fill="rgb(0,0,0)" font-family="{}" font-size="10.00"  text-anchor="end">
		<text><tspan font-family="{}" >1</tspan></text>
	</g>
</g>
<g fill="none" color="black" stroke="currentColor" stroke-width="0.50" stroke-linecap="butt" stroke-linejoin="miter">
</g>
<g fill="none" color="gray" stroke="currentColor" stroke-width="0.50" stroke-linecap="butt" stroke-linejoin="miter">
	<path stroke='gray' stroke-dasharray='2,4' class="gridline"  d='M30.8,57.7 L623.1,57.7  '/></g>
<g fill="none" color="black" stroke="currentColor" stroke-width="0.50" stroke-linecap="butt" stroke-linejoin="miter">
	<path stroke='black'  d='M30.8,57.7 L39.2,57.7 M623.1,57.7 L614.7,57.7  '/>	<g transform="translate(25.2,61.4)" stroke="none" fill="rgb(0,0,0)" font-family="{}" font-size="10.00"  text-anchor="end">
		<text><tspan font-family="{}" >1.2</tspan></text>
	</g>
</g>
<g fill="none" color="black" stroke="currentColor" stroke-width="0.50" stroke-linecap="butt" stroke-linejoin="miter">
</g>
<g fill="none" color="gray" stroke="currentColor" stroke-width="0.50" stroke-linecap="butt" stroke-linejoin="miter">
	<path stroke='gray' stroke-dasharray='2,4' class="gridline"  d='M30.8,11.3 L623.1,11.3  '/></g>
<g fill="none" color="black" stroke="currentColor" stroke-width="0.50" stroke-linecap="butt" stroke-linejoin="miter">
	<path stroke='black'  d='M30.8,11.3 L39.2,11.3 M623.1,11.3 L614.7,11.3  '/>	<g transform="translate(25.2,15.0)" stroke="none" fill="rgb(0,0,0)" font-family="{}" font-size="10.00"  text-anchor="end">
		<text><tspan font-family="{}" >1.4</tspan></text>
	</g>
</g>
<g fill="none" color="black" stroke="currentColor" stroke-width="0.50" stroke-linecap="butt" stroke-linejoin="miter">
</g>
<g fill="none" color="gray" stroke="currentColor" stroke-width="0.50" stroke-linecap="butt" stroke-linejoin="miter">
	<path stroke='gray' stroke-dasharray='2,4' class="gridline"  d='M30.8,336.0 L30.8,11.3  '/></g>
<g fill="none" color="black" stroke="currentColor" stroke-width="0.50" stroke-linecap="butt" stroke-linejoin="miter">
	<path stroke='black'  d='M30.8,336.0 L30.8,327.6 M30.8,11.3 L30.8,19.7  '/>	<g transform="translate(30.8,351.7)" stroke="none" fill="rgb(0,0,0)" font-family="{}" font-size="10.00"  text-anchor="middle">
		<text><tspan font-family="{}" >0</tspan></text>
	</g>
</g>
<g fill="none" color="black" stroke="currentColor" stroke-width="0.50" stroke-linecap="butt" stroke-linejoin="miter">
</g>
<g fill="none" color="gray" stroke="currentColor" stroke-width="0.50" stroke-linecap="butt" stroke-linejoin="miter">
	<path stroke='gray' stroke-dasharray='2,4' class="gridline"  d='M149.3,336.0 L149.3,11.3  '/></g>
<g fill="none" color="black" stroke="currentColor" stroke-width="0.50" stroke-linecap="butt" stroke-linejoin="miter">
	<path stroke='black'  d='M149.3,336.0 L149.3,327.6 M149.3,11.3 L149.3,19.7  '/>	<g transform="translate(149.3,351.7)" stroke="none" fill="rgb(0,0,0)" font-family="{}" font-size="10.00"  text-anchor="middle">
		<text><tspan font-family="{}" >10</tspan></text>
	</g>
</g>
<g fill="none" color="black" stroke="currentColor" stroke-width="0.50" stroke-linecap="butt" stroke-linejoin="miter">
</g>
<g fill="none" color="gray" stroke="currentColor" stroke-width="0.50" stroke-linecap="butt" stroke-linejoin="miter">
	<path stroke='gray' stroke-dasharray='2,4' class="gridline"  d='M267.7,336.0 L267.7,11.3  '/></g>
<g fill="none" color="black" stroke="currentColor" stroke-width="0.50" stroke-linecap="butt" stroke-linejoin="miter">
	<path stroke='black'  d='M267.7,336.0 L267.7,327.6 M267.7,11.3 L267.7,19.7  '/>	<g transform="translate(267.7,351.7)" stroke="none" fill="rgb(0,0,0)" font-family="{}" font-size="10.00"  text-anchor="middle">
		<text><tspan font-family="{}" >20</tspan></text>
	</g>
</g>
<g fill="none" color="black" stroke="currentColor" stroke-width="0.50" stroke-linecap="butt" stroke-linejoin="miter">
</g>
<g fill="none" color="gray" stroke="currentColor" stroke-width="0.50" stroke-linecap="butt" stroke-linejoin="miter">
	<path stroke='gray' stroke-dasharray='2,4' class="gridline"  d='M386.2,336.0 L386.2,11.3  '/></g>
<g fill="none" color="black" stroke="currentColor" stroke-width="0.50" stroke-linecap="butt" stroke-linejoin="miter">
	<path stroke='black'  d='M386.2,336.0 L386.2,327.6 M386.2,11.3 L386.2,19.7  '/>	<g transform="translate(386.2,351.7)" stroke="none" fill="rgb(0,0,0)" font-family="{}" font-size="10.00"  text-anchor="middle">
		<text><tspan font-family="{}" >30</tspan></text>
	</g>
</g>
<g fill="none" color="black" stroke="currentColor" stroke-width="0.50" stroke-linecap="butt" stroke-linejoin="miter">
</g>
<g fill="none" color="gray" stroke="currentColor" stroke-width="0.50" stroke-linecap="butt" stroke-linejoin="miter">
	<path stroke='gray' stroke-dasharray='2,4' class="gridline"  d='M504.6,336.0 L504.6,11.3  '/></g>
<g fill="none" color="black" stroke="currentColor" stroke-width="0.50" stroke-linecap="butt" stroke-linejoin="miter">
	<path stroke='black'  d='M504.6,336.0 L504.6,327.6 M504.6,11.3 L504.6,19.7  '/>	<g transform="translate(504.6,351.7)" stroke="none" fill="rgb(0,0,0)" font-family="{}" font-size="10.00"  text-anchor="middle">
		<text><tspan font-family="{}" >40</tspan></text>
	</g>
</g>
<g fill="none" color="black" stroke="currentColor" stroke-width="0.50" stroke-linecap="butt" stroke-linejoin="miter">
</g>
<g fill="none" color="gray" stroke="currentColor" stroke-width="0.50" stroke-linecap="butt" stroke-linejoin="miter">
	<path stroke='gray' stroke-dasharray='2,4' class="gridline"  d='M623.1,336.0 L623.1,11.3  '/></g>
<g fill="none" color="black" stroke="currentColor" stroke-width="0.50" stroke-linecap="butt" stroke-linejoin="miter">
	<path stroke='black'  d='M623.1,336.0 L623.1,327.6 M623.1,11.3 L623.1,19.7  '/>	<g transform="translate(623.1,351.7)" stroke="none" fill="rgb(0,0,0)" font-family="{}" font-size="10.00"  text-anchor="middle">
		<text><tspan font-family="{}" >50</tspan></text>
	</g>
</g>
<g fill="none" color="black" stroke="currentColor" stroke-width="0.50" stroke-linecap="butt" stroke-linejoin="miter">
</g>
<g fill="none" color="black" stroke="currentColor" stroke-width="0.50" stroke-linecap="butt" stroke-linejoin="miter">
	<path stroke='black'  d='M30.8,11.3 L30.8,336.0 L623.1,336.0 L623.1,11.3 L30.8,11.3 Z  '/></g>
<g fill="none" color="black" stroke="currentColor" stroke-width="0.50" stroke-linecap="butt" stroke-linejoin="miter">
</g>
	<g id="gnuplot_plot_1a" ><title>gnuplot_plot_1a</title>
<g fill="none" color="black" stroke="currentColor" stroke-width="0.50" stroke-linecap="butt" stroke-linejoin="miter">
	<path stroke='rgb(  0,   0, 255)'  d='M42.6,336.0 L54.5,336.0 L66.3,336.0 L78.2,336.0 L90.0,336.0 L101.9,336.0 L113.7,336.0 L125.6,336.0
		L137.4,336.0 L149.3,336.0 L161.1,336.0 L173.0,336.0 L184.8,336.0 L196.6,336.0 L208.5,336.0 L220.3,336.0
		L232.2,336.0 L244.0,336.0 L255.9,336.0 L267.7,336.0 L279.6,336.0 L291.4,336.0 L303.3,336.0 L315.1,336.0
		L327.0,335.9 L338.8,335.9 L350.6,335.8 L362.5,335.7 L374.3,335.5 L386.2,335.3 L398.0,334.8 L409.9,334.0
		L421.7,332.8 L433.6,331.0 L445.4,327.9 L457.3,322.9 L469.1,315.0 L480.9,302.1 L492.8,281.0 L504.6,247.2
		L516.5,192.3 L528.3,103.7  '/></g>
	</g>
<g fill="none" color="white" stroke="rgb(  0,   0, 255)" stroke-width="2.00" stroke-linecap="butt" stroke-linejoin="miter">
</g>
<g fill="none" color="black" stroke="currentColor" stroke-width="2.00" stroke-linecap="butt" stroke-linejoin="miter">
</g>
<g fill="none" color="black" stroke="black" stroke-width="0.50" stroke-linecap="butt" stroke-linejoin="miter">
</g>
<g fill="none" color="black" stroke="currentColor" stroke-width="0.50" stroke-linecap="butt" stroke-linejoin="miter">
</g>
</g>
</svg>

