<?xml version="1.0" encoding="UTF-8" standalone="no"?>
<svg
   xmlns:dc="http://purl.org/dc/elements/1.1/"
   xmlns:cc="http://creativecommons.org/ns#"
   xmlns:rdf="http://www.w3.org/1999/02/22-rdf-syntax-ns#"
   xmlns:svg="http://www.w3.org/2000/svg"
   xmlns="http://www.w3.org/2000/svg"
   xmlns:sodipodi="http://sodipodi.sourceforge.net/DTD/sodipodi-0.dtd"
   xmlns:inkscape="http://www.inkscape.org/namespaces/inkscape"
   height="600"
   viewBox="0 0 640 480"
   width="800"
   version="1.1"
   y="0px"
   x="0px"
   id="svg158"
   sodipodi:docname="AmdahlsLaw.svg"
   inkscape:version="0.92.4 (5da689c313, 2019-01-14)">
  <metadata
     id="metadata164">
    <rdf:RDF>
      <cc:Work
         rdf:about="">
        <dc:format>image/svg+xml</dc:format>
        <dc:type
           rdf:resource="http://purl.org/dc/dcmitype/StillImage" />
        <dc:title></dc:title>
      </cc:Work>
    </rdf:RDF>
  </metadata>
  <defs
     id="defs162" />
  <sodipodi:namedview
     pagecolor="#ffffff"
     bordercolor="#666666"
     borderopacity="1"
     objecttolerance="10"
     gridtolerance="10"
     guidetolerance="10"
     inkscape:pageopacity="0"
     inkscape:pageshadow="2"
     inkscape:window-width="640"
     inkscape:window-height="480"
     id="namedview160"
     showgrid="false"
     scale-x="0.8"
     inkscape:pagecheckerboard="true"
     inkscape:zoom="0.84876543"
     inkscape:cx="393.86644"
     inkscape:cy="342.09796"
     inkscape:current-layer="g156" />
  <g
     font-size="12.4375"
     font-weight="bold"
     id="g156"
     style="font-weight:bold;font-size:12.4375px;font-family:Arial"
     transform="translate(0,91.2)">
    <rect
       height="508.56363"
       width="667.69604"
       y="-103.27334"
       x="-15.474775"
       id="rect2"
       style="fill:#ffffff;stroke:none;stroke-width:1.04028523" />
    <path
       d="m 82.165208,301.54264 31.443992,-6.396 31.443,-5.01 31.444,-3.088 31.443,-2.072 c 0,0 62.887,-1.359 376.79,-1.359"
       id="path4"
       inkscape:connector-curvature="0"
       style="fill:none;stroke:#29aae2;stroke-width:2" />
    <path
       d="m 82.165208,301.30264 31.442992,-11.594 31.443,-12.18 31.443,-11.498 31.442,-8.389 31.45,-4.93 31.443,-3.152 31.444,-1.814 c 0,0 125.78,-1.236 283.51,-1.236"
       id="path6"
       inkscape:connector-curvature="0"
       style="fill:none;stroke:#ed1c24;stroke-width:2" />
    <path
       d="m 82.165208,301.08264 31.442992,-15.584 31.442,-22.629 31.441,-30.23 31.439,-32.129 31.44,-25.48 31.442,-17.707 31.443,-10.451 31.444,-6.089 31.443,-3.066 31.443,-1.122 c 0,0 155.65,-1.387 189.19,-1.387"
       id="path8"
       inkscape:connector-curvature="0"
       style="fill:none;stroke:#8d5ca6;stroke-width:2" />
    <path
       d="m 585.7792,-50.313363 c -45.817,-0.11 -126.32,0.992 -126.32,0.992 l -31.444,1.533 -31.443,4.343 -31.442,6.082 -31.442,12.632 -31.442,21.4850006 -31.438,37.5129994 -31.44,53.099 -31.438,61.432003 -31.436,60.614 -31.44,46.057 -31.441,28.117 -31.442992,17.262"
       id="path10"
       inkscape:connector-curvature="0"
       style="fill:none;stroke:#00a651;stroke-width:2" />
    <text
       transform="scale(1.0004999,0.99950035)"
       id="text34"
       x="41.976425"
       y="-47.098595"
       style="font-size:12.443717px;stroke-width:1.00049984">
      <tspan
         y="-47.098595"
         x="41.976425"
         id="tspan12"
         style="stroke-width:1.00049984">20.00</tspan>
      <tspan
         y="-9.9750471"
         x="41.976425"
         id="tspan14"
         style="stroke-width:1.00049984">18.00</tspan>
      <tspan
         y="27.148499"
         x="41.976425"
         id="tspan16"
         style="stroke-width:1.00049984">16.00</tspan>
      <tspan
         y="64.272049"
         x="41.976425"
         id="tspan18"
         style="stroke-width:1.00049984">14.00</tspan>
      <tspan
         y="101.39561"
         x="41.976425"
         id="tspan20"
         style="stroke-width:1.00049984">12.00</tspan>
      <tspan
         y="138.52016"
         x="41.976425"
         id="tspan22"
         style="stroke-width:1.00049984">10.00</tspan>
      <tspan
         y="175.6427"
         x="48.896881"
         id="tspan24"
         style="stroke-width:1.00049984">8.00</tspan>
      <tspan
         y="212.76724"
         x="48.896881"
         id="tspan26"
         style="stroke-width:1.00049984">6.00</tspan>
      <tspan
         y="249.89081"
         x="48.896881"
         id="tspan28"
         style="stroke-width:1.00049984">4.00</tspan>
      <tspan
         y="287.01535"
         x="48.896881"
         id="tspan30"
         style="stroke-width:1.00049984">2.00</tspan>
      <tspan
         y="324.13791"
         x="48.896881"
         id="tspan32"
         style="stroke-width:1.00049984">0.00</tspan>
    </text>
    <text
       transform="matrix(0,-0.99949986,1.0005004,0,0,0)"
       id="text36"
       x="-161.8951"
       y="32.850071"
       style="font-size:12.43128014px;stroke-width:0.99949986">Speedup</text>
    <text
       transform="matrix(0,-0.99949986,1.0005004,0,0,0)"
       id="text72"
       x="-333.96558"
       y="86.310623"
       style="font-size:12.43128014px;stroke-width:0.99949986">
      <tspan
         y="86.310623"
         x="-333.96558"
         id="tspan38"
         style="stroke-width:0.99949986">1</tspan>
      <tspan
         y="117.7309"
         x="-333.96558"
         id="tspan40"
         style="stroke-width:0.99949986">2</tspan>
      <tspan
         y="149.15118"
         x="-333.96558"
         id="tspan42"
         style="stroke-width:0.99949986">4</tspan>
      <tspan
         y="180.57146"
         x="-333.96558"
         id="tspan44"
         style="stroke-width:0.99949986">8</tspan>
      <tspan
         y="211.99174"
         x="-340.88611"
         id="tspan46"
         style="stroke-width:0.99949986">16</tspan>
      <tspan
         y="243.412"
         x="-340.88611"
         id="tspan48"
         style="stroke-width:0.99949986">32</tspan>
      <tspan
         y="274.83224"
         x="-340.88611"
         id="tspan50"
         style="stroke-width:0.99949986">64</tspan>
      <tspan
         y="306.25253"
         x="-347.80667"
         id="tspan52"
         style="stroke-width:0.99949986">128</tspan>
      <tspan
         y="337.67181"
         x="-347.80667"
         id="tspan54"
         style="stroke-width:0.99949986">256</tspan>
      <tspan
         y="369.09311"
         x="-347.80667"
         id="tspan56"
         style="stroke-width:0.99949986">512</tspan>
      <tspan
         y="400.51239"
         x="-354.72821"
         id="tspan58"
         style="stroke-width:0.99949986">1024</tspan>
      <tspan
         y="431.93365"
         x="-354.72821"
         id="tspan60"
         style="stroke-width:0.99949986">2048</tspan>
      <tspan
         y="463.35291"
         x="-354.72821"
         id="tspan62"
         style="stroke-width:0.99949986">4096</tspan>
      <tspan
         y="494.7742"
         x="-354.72821"
         id="tspan64"
         style="stroke-width:0.99949986">8192</tspan>
      <tspan
         y="526.19452"
         x="-361.64874"
         id="tspan66"
         style="stroke-width:0.99949986">16384</tspan>
      <tspan
         y="557.61475"
         x="-361.64874"
         id="tspan68"
         style="stroke-width:0.99949986">32768</tspan>
      <tspan
         y="589.03503"
         x="-361.64874"
         id="tspan70"
         style="stroke-width:0.99949986">65536</tspan>
    </text>
    <text
       transform="scale(1.0004999,0.99950035)"
       id="text74"
       x="265.43604"
       y="376.88916"
       style="font-size:12.443717px;stroke-width:1.00049984">Number of Processors</text>
    <line
       y2="-50.313362"
       x2="585.77924"
       y1="-50.313362"
       x1="78.477211"
       id="line76"
       style="stroke:#000000" />
    <line
       y2="-13.210364"
       x2="585.77924"
       y1="-13.210364"
       x1="78.477211"
       id="line78"
       style="stroke:#000000" />
    <line
       y2="23.892643"
       x2="585.77924"
       y1="23.892643"
       x1="78.477211"
       id="line80"
       style="stroke:#000000" />
    <line
       y2="61.002636"
       x2="585.77924"
       y1="61.002636"
       x1="78.477211"
       id="line82"
       style="stroke:#000000" />
    <line
       y2="98.102646"
       x2="585.77924"
       y1="98.102646"
       x1="78.477211"
       id="line84"
       style="stroke:#000000" />
    <line
       y2="135.20264"
       x2="585.77924"
       y1="135.20264"
       x1="78.477211"
       id="line86"
       style="stroke:#000000" />
    <line
       y2="172.30264"
       x2="585.77924"
       y1="172.30264"
       x1="78.477211"
       id="line88"
       style="stroke:#000000" />
    <line
       y2="209.41266"
       x2="585.77924"
       y1="209.41266"
       x1="78.477211"
       id="line90"
       style="stroke:#000000" />
    <line
       y2="246.51262"
       x2="585.77924"
       y1="246.51262"
       x1="78.477211"
       id="line92"
       style="stroke:#000000" />
    <line
       y2="283.61261"
       x2="585.77924"
       y1="283.61261"
       x1="78.477211"
       id="line94"
       style="stroke:#000000" />
    <line
       y2="320.71262"
       x2="585.77924"
       y1="320.71262"
       x1="78.477211"
       id="line96"
       style="stroke:#000000" />
    <line
       y2="326.53262"
       x2="82.168213"
       y1="-50.810364"
       x1="82.130211"
       id="line98"
       style="stroke:#000000" />
    <line
       y2="326.53262"
       x2="113.60921"
       y1="-50.810364"
       x1="113.57921"
       id="line100"
       style="stroke:#000000" />
    <line
       y2="326.53262"
       x2="145.05919"
       y1="-50.810364"
       x1="145.0192"
       id="line102"
       style="stroke:#000000" />
    <line
       y2="326.53262"
       x2="176.49919"
       y1="-50.810364"
       x1="176.4592"
       id="line104"
       style="stroke:#000000" />
    <line
       y2="326.53262"
       x2="207.93919"
       y1="-50.810364"
       x1="207.90919"
       id="line106"
       style="stroke:#000000" />
    <line
       y2="326.53262"
       x2="239.38919"
       y1="-50.810364"
       x1="239.3492"
       id="line108"
       style="stroke:#000000" />
    <line
       y2="326.53262"
       x2="270.82922"
       y1="-50.810364"
       x1="270.78922"
       id="line110"
       style="stroke:#000000" />
    <line
       y2="326.53262"
       x2="302.26923"
       y1="-50.810364"
       x1="302.2392"
       id="line112"
       style="stroke:#000000" />
    <line
       y2="326.53262"
       x2="333.71921"
       y1="-50.810364"
       x1="333.6792"
       id="line114"
       style="stroke:#000000" />
    <line
       y2="326.53262"
       x2="365.15921"
       y1="-50.810364"
       x1="365.1192"
       id="line116"
       style="stroke:#000000" />
    <line
       y2="326.53262"
       x2="396.60922"
       y1="-50.810364"
       x1="396.56921"
       id="line118"
       style="stroke:#000000" />
    <line
       y2="326.53262"
       x2="428.04922"
       y1="-50.810364"
       x1="428.00922"
       id="line120"
       style="stroke:#000000" />
    <line
       y2="326.53262"
       x2="459.4892"
       y1="-50.810364"
       x1="459.4592"
       id="line122"
       style="stroke:#000000" />
    <line
       y2="326.53262"
       x2="490.93921"
       y1="-50.810364"
       x1="490.8992"
       id="line124"
       style="stroke:#000000" />
    <line
       y2="326.53262"
       x2="522.37921"
       y1="-50.810364"
       x1="522.33923"
       id="line126"
       style="stroke:#000000" />
    <line
       y2="326.53262"
       x2="553.81921"
       y1="-50.810364"
       x1="553.78918"
       id="line128"
       style="stroke:#000000" />
    <line
       y2="326.53262"
       x2="585.28918"
       y1="-50.810364"
       x1="585.25922"
       id="line130"
       style="stroke:#000000" />
    <text
       font-size="14.5104"
       transform="scale(1.0004999,0.99950035)"
       id="text132"
       style="font-size:14.51765347px;stroke-width:1.00049984"
       x="288.78516"
       y="-69.788139">Amdahl’s Law</text>
    <rect
       height="103.83"
       width="134.35001"
       y="-9.8073645"
       x="408.6192"
       id="rect134"
       style="opacity:0.98999999;fill:#ffffff;stroke:#000000;stroke-width:1.60000002;stroke-miterlimit:4;stroke-dasharray:none;stroke-opacity:1" />
    <text
       font-size="14.5104"
       transform="scale(1.0004999,0.99950035)"
       id="text146"
       style="font-size:14.51765347px;stroke-width:1.00049984"
       x="424.9295"
       y="9.5288992">
      <tspan
         y="9.5288992"
         x="424.9295"
         id="tspan136"
         style="stroke-width:1.00049984">Parallel Portion</tspan>
      <tspan
         y="28.091171"
         x="463.94897"
         id="tspan138"
         style="stroke-width:1.00049984">95%</tspan>
      <tspan
         y="46.652447"
         x="463.94897"
         id="tspan140"
         style="stroke-width:1.00049984">90%</tspan>
      <tspan
         y="65.214714"
         x="463.94897"
         id="tspan142"
         style="stroke-width:1.00049984">75%</tspan>
      <tspan
         y="83.775986"
         x="463.94897"
         id="tspan144"
         style="stroke-width:1.00049984">50%</tspan>
    </text>
    <line
       y2="22.382641"
       x1="430.4892"
       x2="460.91922"
       y1="22.382641"
       id="line148"
       style="stroke:#00a651;stroke-width:2;stroke-linecap:round" />
    <line
       y2="40.93264"
       x1="430.4892"
       x2="460.91922"
       y1="40.93264"
       id="line150"
       style="stroke:#8d5ca6;stroke-width:2;stroke-linecap:round" />
    <line
       y2="59.492641"
       x1="430.4892"
       x2="460.91922"
       y1="59.492641"
       id="line152"
       style="stroke:#ed1c24;stroke-width:2;stroke-linecap:round" />
    <line
       y2="78.042641"
       x1="430.4892"
       x2="460.91922"
       y1="78.042641"
       id="line154"
       style="stroke:#29aae2;stroke-width:2;stroke-linecap:round" />
  </g>
</svg>
