<?xml version="1.0" encoding="UTF-8" standalone="no"?>
<svg
   xmlns:dc="http://purl.org/dc/elements/1.1/"
   xmlns:cc="http://creativecommons.org/ns#"
   xmlns:rdf="http://www.w3.org/1999/02/22-rdf-syntax-ns#"
   xmlns:svg="http://www.w3.org/2000/svg"
   xmlns="http://www.w3.org/2000/svg"
   xmlns:xlink="http://www.w3.org/1999/xlink"
   xmlns:sodipodi="http://sodipodi.sourceforge.net/DTD/sodipodi-0.dtd"
   xmlns:inkscape="http://www.inkscape.org/namespaces/inkscape"
   version="1.1"
   id="Layer_1"
   x="0px"
   y="0px"
   width="578px"
   height="492px"
   viewBox="0 0 578 492"
   enable-background="new 0 0 578 492"
   xml:space="preserve"
   sodipodi:docname="calcul_scalability.svg"
   inkscape:version="0.92.4 (5da689c313, 2019-01-14)"><metadata
   id="metadata2079"><rdf:RDF><cc:Work
       rdf:about=""><dc:format>image/svg+xml</dc:format><dc:type
         rdf:resource="http://purl.org/dc/dcmitype/StillImage" /><dc:title></dc:title></cc:Work></rdf:RDF></metadata><defs
   id="defs2077" /><sodipodi:namedview
   pagecolor="#ffffff"
   bordercolor="#666666"
   borderopacity="1"
   objecttolerance="10"
   gridtolerance="10"
   guidetolerance="10"
   inkscape:pageopacity="0"
   inkscape:pageshadow="2"
   inkscape:window-width="640"
   inkscape:window-height="480"
   id="namedview2075"
   showgrid="false"
   inkscape:pagecheckerboard="true"
   inkscape:zoom="1.1856973"
   inkscape:cx="214.96204"
   inkscape:cy="252.0779"
   inkscape:current-layer="Layer_1" />  <rect
   style="fill:#ffffff;stroke:none;stroke-width:1.00157475;stroke-miterlimit:4;stroke-dasharray:none;stroke-opacity:1"
   id="rect10635"
   width="583.6228"
   height="498.74707"
   x="0"
   y="0" /><image
   id="image0"
   width="578"
   height="492"
   x="0"
   y="0"
   xlink:href="data:image/png;base64,iVBORw0KGgoAAAANSUhEUgAAAkIAAAHsCAQAAACUUAqIAAAABGdBTUEAALGPC/xhBQAAACBjSFJN AAB6JgAAgIQAAPoAAACA6AAAdTAAAOpgAAA6mAAAF3CculE8AAAAAmJLR0QA/4ePzL8AAAAJcEhZ cwAAASwAAAEsAHOI6VIAAAAHdElNRQfgBhsAEh8nNOk6AAAibElEQVR42u3dP4jzwJ/f8c/3cmkS QtAPrksgaCHVFSFaUl0pE0jvp0pxaeT2Unm7QCovgbtr7WsCV906kCaksYuQJkVWELguZM0V6Q5W RbhwJIRJIdkr+b9s2aM/75fgeXa1a3nkXX92ZjQzMicA8Oe3fBcAwLARQgC8IoQAeEUIAfCKEALg FSEEwCtCCIBXhBAArwghAF4RQgC8IoQAeEUIAfCKEALg1QNDyGL7uuPRHzZ+/ssB4Nl+u/5DbKxI krTR0mWSBRq7xcF3JZppdEfJJlpZcHhcAP1SsyZkU/tSImktKdKnTSV9FKFU/r5EM41cerA/NHdi +7YPS36+02WaaFbeA6CX3NWbAq30pbi0J9SnVnJK9r4z0vf+vsrX53LVRylSoi85fSoo7R3LKbq+ hGxsbN3b7PqVFW2lSC8uq+yLtZL0Wq3z2Kcyd6YpZnMlkrO9vYE+FSp1r5XnDPVafU4AfXJ1c8wS xXrbjwO3VqpsL4ISRXo/e7BYeYOueqxMS0lRpUN6olBT3y8SgMe5vk9oKh3tJs4O4mSq1K1PH8hC hZLSk99Q6mFyG62VWOD7ZQLwKNeHUHjyK/v1oFDLs0eKJR2pCWkbP9V4WioQF+uB3royhPK6iB1r GKV7kRNLF0IokqTDupIFinVYs1pKhBDQX1d3TNuXQknvWrr0wgE37uXikdaHHdc201TSL7cXYfap SL+hcxrop+ubY2+SpKk+7ds+bGrRsW+yWNLm3GFO9QhZoqkyTdxhLSqVFAlAL10dQm6pifLaSKCx Zvq0ryMTK853OUtHeoQsssRWmmuh1xNd39tHAeidGtM23MKWGitSXHRSh/qw/cZTePEweZ1mVRok lCrTWhN3qgZFQwzosVpzx1ymhVR0ISeKJc0udEIfiqVLvUZ7aI4BPXbTLHqXuaUb6V1SaJfrPiVF j9C6zmMA9NkVIWShzY7td3lXda0QKvp20lqPAdBj19SE4pONoY3qBkp+pHo1oaj2swDojGtCKDoe ARYo1Hpv/M6lTuS8R2ijOpi0AfTYNR3T8YlomUoHE1VTnWmgFT1Cdbuyt8cF0EMXa0IWKlR0ODTR Ik31fjD54mwI3dgjRHMM6LHLzbF82Y1VdY1Dm2qlRdE1XeIypYqOz3q3UPkx6javYqU1G3AAOuNy cyxS6kY21symWhcNs7F0dIKFJC0Vaay9kc/FzLPc3ObVpcvOsbG4pA/02OWaUKqR5JbuRb92fUO/ 3Is71bOz0JGhhe5lb0npKyNIeU2M5e6B3qqxvOvVh5wr0UszDSgL9KWlmzz9dQHwJI+479ibssaW ZD12BQ5AjzwghFymNyXWwGwvC5XonU5poM8e0ByTJJsr0ujehcjsUylNMaDfHhRCks2l+wKkmSAD 0G4Puxe9m+RBdCubS0QQ0H8PqwlJkkXu5pHOFtIXBAzBw2pCknR7BElEEIbDYvu66/Ef1uE70tRa WRFAHTYuBu5utHSZZIHGh+uoW6KZRrUPXjbRygLX0UG9D60JAcNlU/tSonzSUaRPm0r6OJxNkEfQ YavBQnMntm/7qM7ldJkmmlX3Peksa5TyJMfGxtbwpkArfSku7Qn1qZWckr3vjPS9v6/y9blc9VGK lOhLTp8KKt85llPk6XyvLuXRR/v+cbGx9W/TSt/7bz7FcjqICX1qdfZIczm5g71B/gY/eNavy2/5 h5xvjVIeebTvHxcbW982JXLHajf61PeR74zPHutL7lhMaSYnp3FlXyinmZczrlHKw40+IaBpU+nE bTzXB9+ZujML1Zy6X/FOpYfJbbRWYk9fDrleKQ8RQkDTTq8tWnmjWqLwwmLHB/cr3okOjydpqUDP v1hft5R7CCGgUXlNxI6tI5HuRU6sSyuuR5J0WFeyQLGO1ayWkocQqlvKfb7bz2xsfdv0JSen2aVr VXL6uuJItfpa9Cn37M7p+3qEHIMVgca96UPSVFPLtFaq9bG5AxYrv3PfSaf6WizRVJnejq5umipS dK7uYdHVq7yn18zdvKmUVb7/arCx9W9Tou/Kjq/D+oASXbiWpUROlatnipRoJae5whOPmV086rfc ldtVV9puKWV1oyYENM4tbKmxIsVFJ3WoD/u1Vye4fAP1vFt3ZT97UmVaa3JmZuXlusvLpatVu7O4 7gYTt5SyghACLrLxwb2GL3BZfnsGCxQrUSxpVvu2n/n9il9qPSbVhUvi7nJH8eNLWfGEq2MWWPz8 sQtAUyzRh1a3/Q67zC3dSO+SQrtc9yk/a97X0vLbXTVRymdcov/QSqvnvCRA02ysuaTomhiy0GbH 9he3Ca0VQjfer/jZGijlw0PIxoolRcd/OEDrrWu8xeKTTaGN6r5Vo+LZ63n2TdNvK2XFg/uELNKf FB9ObX1lRxfQIi6zkVa6brHh6HgAWKDwoFfp0tHyvpa6i/tdrq19XH2Jfu0u327rtlJWPDSELNBc f3f36YeN7llrEfDDZTaSruqYjk9Ey7H756U600Ar+lrqdmX/HPncV68eJ3TpG+4q5c4DQ8gCrSqV 00Af9srS9eie635r87fk4crqFmmq94N2wNkQurmv5WJz7IrazfUa6bd6WJ/QQQT9L0mhvpq4KSLQ SrGktVbV9QRtqpUWRdd0icuUKjre2W2h8mPUvyIXK33W+ux3lHLvpXjMiNGomD/j9IfF//+6+P/7 /PopbGxd3TTXp5PG+tKX5pppppm+jo2WLr5/qiPrDu3eOdvt4qJgpceO9aQVhe4p5f72gJqQhTbT Z1HRnOg/Frv/s16VSQq0sg/qQ+ihVCPJLd2Lfu36hn65l5OzpxY6MrDQvewt1vxaowRxcdSHu6uU BwdrOiHj3YffGpc+j4v1dLdfTZp+Zja2rm2ay103v+qqowX61tz3OdXfmq8JbZN9rdf9vwAu1csu p+sN3AKewsZPraW/KdP0/sMUjl2D64Dmr44tFCjQ+ngV1GWa2PJ5lUagDks0V/a8oSQuszfNbdHE 81moRO9dvGnoQ28DLUkWF1M2RgxVRLtZorkkKdPr897MNld01UDIS8f5VOomzyp1k1jeFZBUiiBp c8WCGI1xE6W6e1KTzSW93XsUPwghQJUISpuol9ThJkWI3F76ua6bVtJKrCcEeI0gSXKTO7vDO9kX tEVNCIPnO4Ik6b6u6S5HECGEwWtDBA0bIYRBI4L8I4QwbNvrUkSQN4QQhm2kTESQV4QQBs2lGmlJ BPnEJXoMnEv1y3cZho2aEACvCCEAXhFCALwihAB4RQgB8IoQwmBYYp+33VEej0QIYSAs0fy6O8rj uQghDMJujlh0/wJiaBYhhAGoTFPt6PqD/UUIofeYKd9uhBB6jghqO0IIvUYEtR8hhB4jgrqAEEJv EUHdQAih/4igViOE0FtuoYmIoNZjUTP0mFtYpjUR1G6EEHrNLX2XAJfQHAPgFSEEwCtCCIBXhBAA rwgh9IRFvkuA2xBC6AVL9Gnz+4+D5yOE0APFBI2EGOoiQgidV5ojRpOsgwghdFx1mqrv0qA+Qgid xkz57iOE0GFEUB8QQugsIqgfCCF0FBHUF4QQOskiIqgvCCF0kku1kEQE9QDrCaGj3MSkiAjqPkII neUmvkuAJtAcA+AVIQTAK0IIgFeEEACvCCEAXhFC6ABLLPFdBjwKl+jRevkEDZNb+C4JHoGaEFpu N0dsbmPfZcEjEEJotco01bXv0uARCCG0GDPlh4AQQmsRQcNACKGliKChIITQSkTQcBBCaCEiaEgI IbTR9v5hRNAAEEJoITfRQkTQQDBiGq3kJpbpnQgaAkIILeXefJcAz0FzDIBXhBAArwghAF4RQgC8 IoTgnQW+SwCfCCF4Zom+LLr/OOgqQgheWaK5Aq2IoeEihODRbo5YoKnvssAXQgjeVKapckvnwSKE 4Akz5ZEjhOAFEYQtQggeEEH4QQjh6YgglBFCeDIbE0EoI4TwbGulkoggFFhPCE/mMhtpJRFByBFC eDqX2UgigpAjhOABAYQf9AkB8IoQAuAVIQTAK0IIgFeEEB7KxqybiPMIITyQJfrQihjCOYQQHqaY IxYRQziHEMKDlKapAmcQQngIZsrjWoQQHoAIwvUIITSOCEIdhBAaRgShHkIIjSKCUBchhAZZoFnx IRGEKxFCaJDLNFImIgg1EEJolEs10pIIwvVY1AwNc6l++S4DuoSaEACvCCEAXhFCALwihAB4RQgB 8IoQws0sMRbrwN24RI8b5RM0TG7iuyToNmpCuMlujlhiszsPhYEjhHCDyjTVd9+lQbcRQqiNmfJo EiGEmoggNIsQQi1EEJpGCKEGIgjNI4RwNSIIj0AIoT4iCA0ihHA1t9BERBAaxohp1OAWlmlNBKFJ hBBqcUvfJUDf0BwD4BUhBMArQgiAV4QQAK8IIZxgoe8SYBgIIRxlib4s8V0KDAEhhCOKCRpzYgiP RwjhQGmOGCGEhyOEsKc6TdV3adB/hBAqmCmPZyOEUEIE4fkIIewQQfCBEEKBCIIfhBAkSRYTQfCD EIIkya21kEQE4elYTwgFNzEpIoLwbIQQdrirPHygOQbAK0IIgFeEEACvCCEAXhFCALwihAbJElYK QltwiX6A8gkaJrfwXRKAmtAA7eaIzW3suywAITQ4lWmqa9+lAQihgWGmPNqHEBoQIghtRAgNBhGE diKEBoIIQlsRQoNABKG9CKFh2A5NJILQOoTQMIyUighCKxFCg+AyjbQggtBGTNsYCJeJdRPRStSE AHhFCAHwihAC4BUhBMArQgiAV4RQ71hi3xb5LgVwLUKoZyzRXIFWxBC6ghDqld0csUBT32UBrkMI 9UhlmipDE9ERhFBvMFMe3UQI9QQRhK4ihHqBCEJ3EUI9QAShywihzrMxEYQuI4S6b6M8eIggdBIh 1Hku1UgZEYSuYlGzHnCpvSojgtBNhFAvuI3vEgC3ojkGwCtCCIBXhBAArwghAF4RQh1jYwt8lwFo EiHUKZboQytiCH1CCHVIMUcsIobQJ4RQZ5SmqQI9Qgh1BDPl0VeEUCcQQegvQqgDiCD0GSHUekQQ +o0QajkiCH1HCLWahUQQ+o4QajW3Ke4fRgSht1hPqOXcwqSECEJ/URNqPbdwr0QQ+osQAuAVIQTA K0IIgFeEEACvCCEAXhFCLWKJzXyXAXg2xgm1Rj5BwwI38V0S4JmoCbXEbo5YYlPfZQGeiRBqhco0 1YXv0gDPRAi1ADPlMWSEkHdEEIaNEPKMCMLQEUJeEUEAIeQREQQQQn6Fxf9EEAaMEPLIvWkhIggD x4hpr9zENloQQRgyQsgz9+67BIBfNMcAeEUIAfCKEALgFSEEwCtC6GksvP8YQP8QQk9iib4s8V0K oH0IoacoJmjMiSFgHyH0BKU5YoQQsIcQerjqNFXfpQHahhB6MGbKA+cRQg9FBAGXEEIPRAQBlxFC D0MEAdcghB7EYiIIuAYh9CBuXdw/jAgCzmI9oYdxE5MiIgg4jxB6IDexgAgCzqM59lBEEHAJNSEc sEhB8eHPR/lndWxUjeBMafkzl9Y6GnqLEBowCxRJ2v4bSgr1tAVHbPvBRpvi/zy00vx/t/b9+uA5 CKEBsVihQoUKiuBphxPBZ9K29pTH01rUn3qJEOo1ixQoVqBwr2F1u3TXyIolSX+h/1H5elPPkwuK Z5GkqVRE00YbbZTl/xJLXUcINcISpe14M1hYBE5Uu2lVrnVsm0iSlB7vXjcnSfoz93ZlqX6UP9vW yOLLRzn6eFle8kyb/P92/BxwPUKoAZZorsxGPn/9LVasUPFV9ZC8NpOX9vZGzvvu8Re5cqhdOg9J u+ZipGvqVuX6kiyP0FTSWht35fPCn+LP2QOfINZKkjTqa0fjbo5Yptdn/8pbpO12Xv62zJR29W1p sbbRFCqoVctLi5pSZ8+976gJ3ak0TXX/kvTjnjNQXETP6TpCprRooGz60EAp/oQtS69CWHSzq2h+ nhJp19gzaa2NMupIbUII3eW5M+UtVKxI8ZlaQKp1Xuvp/zDJ/SaeBUUYne+Gz+NoKpmUFjXEXsR0 dxFCd3heBFmsWPHJv/YbpUqVPrfBa3kze+kWz3zW01ymtUp1JYt3kXSq03vXjCWQfCKEbvaMCLJQ efwc/7u+LsLHT8MiLs69pVwpkmx7tfD0NcNqIKU02Z6HELrRoyPIIo1P1H3SInpa+/Zvn6KWVLBo F0fH65Z5IE13fUgbpUNo4PpCCN3kcRFkgcaKND5S98m01lpr/jrfy6VKd3WkS4G0a8pZb6/v+kYI 3WZ7/7AGI8gCjRVrfORLqdZat+0t4Oz+Y/hXI5AI/wchhG4z0kpRcxFkY8VHboxI3eep9gIpqvYh 8VN4FELoJi6zkWZ6uz+CLNJYyUHjq5V1nyFx6U+Xu8WKnjUGbIgIoRu5TJP7jmChxkoOrtWkWnSj 7lNMsBjAFSS3vm5yCm5DCHlggcZKDvodNlpq0aG3dD5O6F1XTGAFTiOEnsxiJQedz5kWWnLJHcNE CD2RJZoeNL8WWrvlTYcDeoEQegoLlRx0P6+11LLDQ+BqLOUBnEYIPZxFSvYuv2+00LJDvT9HXbOY GXAZIXSRJUpuHQ9kicZ70yfXeufSO/CDELqgmKCxspoxZIGmGld6gDIt9d71+g/QNELorN0csUiz 68cFWajp3uyvjRZadLj/59hZtmwpD3QVIXRGZZrqlT0gFmq61wO07ukbteVLeaArCKGT6s+UPxJA Cy0Y/wOcQwidUDeCDgIo06JT45/ry7vX+3yGeApC6Kh6EWSBpvmt+QqZFnrvVw/QITfyXQL0AyF0 RJ0IskDTyjDEQQQQ0BxC6MD1EUQAAfcjhA6lyhToQgQRQMNZygOPRQgdcKmNtNLmbAQlmg05gCSx lAcaQggd4VJ7VXYqVCzWtDIVY8E4aOB2hNBRp0LFAs0qF+IJIOBOhFANNtW01Ahb6m3QAZRfoh/y K4BGEEJXsljz0nTUjSZDnws/9PNHU37LdwG6wEL70GoXQZne3QtvQaAZ1IQuOLgUv2jiRj8AtgYf Qhafq9PYWLNSIyzVGzWgLZbyQDMGHkKWaG4Ld3SlIAs1L12Kz/TG262CpTzQiEH3CRUTNBKbH/na VJ+lCHrXCxEEPMKAa0KlOWKRBeV+nr060FpvrAl0BEt5oBGDDaHT01Qro4EyTbgr2HEs5YFmDDSE TkXQXh1oqQlXwoDHGmSf0MkIKvcDZfrlfhFBwKMNsCZ0PIKoA9XFUh5oxuBqQiciiDpQfSuttNpb 2B+obWA1IQsPI4g6EODTwGpCblPcwvAngqgDAV4NrCYkuYVpe295CzTXePcl6kD1sJQHGjG4EJLc QgtJskgfpZnxjAeqiVl0aMbAmmM/bKbPXQQt9UIEAX4MsCYkWaCPUj/Qu3v3XSJguAYYQhbrYzct I9WEeWG3YSkPNGNwIWSz0g2bWaDsHizlgUYMKoQs1Iei4hO6ooFW6HUIWSL9NBZsrHmpGfaL6QZ3 YikPNKLHIZRP0DC5xcH9wt4ddw29G0t5oBm9DaHdHLG5ZUorzbBfjHAB2qOnIVSZpvp/9blrhq3F tAygVXoZQpUI+g/697sv0AxrEEt5oBk9DKFSBP03/bn+VfExzbCm5eOE3kWw4y69m7ZRiqA/l/T7 xcepXokgoI16FkKlCPrv+vv6R8XHC41oNADt1KvmWCmC/qf+4W73G3PDHoKlPNCIXoVQ6TL839t9 RE/Qg/C6ohm9ao65iRaS/qo0LpqeIKDlehVCktb63/rbxcf0BAEd0KsQsqk+9LeKTyaOxVofypw5 czbzXQ50XY/6hGy+mx2WacQqQUA39CSEKmsl7t1bHkCb9SKEKusELdzEd3kGgqU80IgehJBFWu2u hzE77GlYygPN6HDHtIWSZEkpgiZEENA1na0JWaK5TRRoe3WGzmigkzoaQsUEjfluB3fNeLri4vya 4aC4TydDqDRHLMf1MB+2dy0hhHCXDvYJHUTQwr0SQUBXdS6EDiLonUvyQJd1rDl2EEET7v/pDUt5 oBGdCqG9COJ6mFd0SKMZHWqO7UVQSgQBfdCZmpCNDyKIzmigB7pTE/qv+svdxwsiyD+W8kAzOlIT skD/Tr9TfMIUVaBHOlETskCr3Sx5LskDvdKBmpBF+lBYfMIl+fZgKQ80ovUhVFmogwhqEZbyQDNa 3hyzeBdBmUZEENA/rQ6h0lpBmUYMjgP6qMXNsdLgxI1+MTCxbVjKA81oaQjZWP9Mv198wsDEdmIp DzSilSFUmaBBBAG91sI+oUoEMTYa6LnW1YQqEfRvGZjYXs58lwD90LKakP1BJYL+he/yAHi0VoWQ /YH+aPcJEQQMQotCqBJB/5IIAoahNSG0F0F/7Ls8uISlPNCMloQQEQQMVStCyCL9m90nRBAwKC24 RG+RVrtyEEHd8S6J8dK4m/cQKi3V8X/0T91/8l0eXMu9+S4B+sFzCJUiiBv4AIPktU+ICALgsSZE BHUbS3mgGd5CiAjqPJbyQCM8NcdKayameiGCgOHyUhMqzZRntSBg4DzUhOxPiaA+yGdtcKG+KTa1 73smwVhYTKQ53L7twxLf53fa00PI/lT/vPiQCAJ+JAo0teDWh7uNM2fK70gz+UkgvepNkeb2efux H+vJIVSKoL8kgoCS/DaS0zuPIkkq3xzLpW6hV20UaeX7FI97agiVIuiv9E+IIKAknwYztfFdR4l1 5Hqly7SUFN157Ad5YghVIuh33V/4PnXch6U8muXWRXjMLbr1GBYqlHT6avPNR36k54XQlAgCzvql jaRAq5tjKJZ0fORWfsRWDoZ5XgjFxf9EEHCUy/RLme6JoUiSDsewW6BYUtbOgaXPHidEBPUHS3k0 zqU20kqBAn3apNy9fKWjPULadndP2tkPa+7RTxCX+uT/n/6L/tr3KQOt9nf0j/U3JUnLerFhob4k ve+P3bJEc2V6uyHUnuK5NaG/od/zfcJAZ4wV6zc1vv+gR8giRRor1kLvbuP7dE55fAilGulP9A98 nyjQe3k/0qp0V8pUmdaatDeApCeEkMu0tj9rZggWMCgb/ar1/bGkjXvxXey6Ht4nhL4qfnXemT3W JAu0Kmo0C73d0CO06N6t072vMQ1gqxRBb+695oPzHqFWjgQ6jxAC2uOjiKBbLs/nj+zgkAlCCDdy dv8xUGazojZzSwRte4Ra3QV9XCtufgjAwuLyzfstEVTMGlv6PotbEEJAO2xvHHBbR39ne4QIIaAt it6gWx5qofKVE1u6bNl5hBBuxFIeDVtLWtfv07Evc/oqImxuzj59n0hddEwDreAmtrjlvjPdG5y4 j5oQ0BJDvfUVNSHciqU80AimbQDwiuYYAK8IIQBe0SeEG1m+Yuayrev1oSsIIdyqw2N00SY0xwB4 RQgB8IpL9AC8oiYEwCtCCIBXhBAArwghAF4RQgC8IoQAeEUIAfCKEALgFSEEwCtCCIBXhBAArwgh AF4RQgC8IoQAeEUIAfCKEALgFSEEwCtCCIBX3G2joyxSILkbbsJssaRs/77nFmvjNr7P6hFuf6WO HCvU2L37PqPecWwd2BQrrHxWfFj7OLPig9Xe/pWcnGJ/5/Sw5zj6St323Ir0Laep79+Gvm3eC8B2 xQ9pLidXfdvkcXLDsQJ96DCE8v8+/J7Tg57p4JW67bkV6FNO34p8/z70baNPqAvGpX+3bmxeuEzL I7vfJW0UNF90C0/c0OXYOT3G4St19LlPljT/aqCVIq314rjdY8MIoS54k5SqqdstZ4e73Jsz9/KQ sodPOad6jj93ePYxH4r05kYuExpGCHWAWzhzr4/+9bdIj3iG2Oc51Xru+PQjLFGgV7qkH4OrY9ga 39rEO82CpzS4Hl5St7AldaBHIYQgSbJQsXtt/LCzC42c9rhQUiLocQihRligqeJdc2atqV5+fm0t 1FRjpZJCrfW+HY9jsaaSpHDbH3NkT6iZgvKeG0oXa6xIkdanemEs0Ifejp6TlClUqrUrPdLGSiRJ mfu1O3qqtHRuoRKN8ze2rYqHLfNjHJ7T7rwj9xsLlChWrI1SLdxaOtxTKkmkqSJtJEVa73/1yJke PveZkp7/+aEZ9Ak1wAKtJPfqRm7kRvqlsQJFu68m+lKgFzdyI40U6dN2X1OqQHHlb/Dhns3Bnlpl s5VWyjRy5kZK9XG02RHrfe/NPdaXQv1yr27kXrTQ1Fb2c/Us25bT5ppq7V6d6V2xvmxWOsiyaOCl xfbz5t2cOO/AAn0o0y9nGinUysaHe0qljPWpjctf2xdJq8rzH3fs9Txd0vM/PzTB9xiBPmya7o1D CbUb+KdETp+Vr33rq/R5LLf36Cv2HN93pGSBvuXKI1uK0S6rC4+LtTdqSKG+9amgtCeRk9O8cuyv vT0nRzOdOkutfkqrRE5f+tjfU3pMZcRPcbbJdc+0910nSnrp58d2/0ZNqAmxVP7r6DbK8r+lFmqm fBTOz9eWCi15Usk+FGhRHtnissvdzxboo1pqyW20UKRyPWMjSW5SOfZEUmLxpWc4Iy2VdiMp1OZg T7UM2bZ5VIyBarAr3PvPbxAIoSakklY2t/GuwTIq3hiJAslVhwdmkp5SobdIsXR0cOJ5ean3B+Wt JSV2vvt2rY1U9O/cZn3Fnp/ne9eryn1lTXcfe/35DQUd0014V6xIiRLJMq213P3aRpKyvX6KQJcG xjUlrxPUH+Eb6/RbP74wwHCtRHfVhK7YU+LS4vJ6qEjNv65+f34DQQg1wGU20jT/q6lAY41tUWqm bA7e0MuHDAs8FOWla/SYl95+mSRZdOvkhsPSni+/xZoq1lpLLV1qs7tqYcf5+/kNBCHUCJfpTW8W KVSksUIllrndJe9mlpG4QXpHneSueWTHI8jipl8Jm2mqTKPGj1spqbef30DQJ9QAm+VdsS51S/fm XjRRuSnkr/8g7xyv//ybM6W+9IaMt897xEqNKkYX/ToWEnd1jv+U1O/PbyAIoSZE1SsybqF10WzJ B+ftz9eO7ePM0Zrrb1je2Imal3r/cbGkzflageU9M8+aYzWWlJ4oUTOBd8vPDzURQs04vGq0lCS3 0bukqVUbN7PSFatU2nvDx5JkDSyr4TK9ae9alQWXm2guzUu997hE0q/9792rccwkpaXRxqWAsFCP H2l8++X5oyW94ueH+/keqNSHTSs5ff4skqVEpQGCmpW/qlCr8nC+4tG71fo0LwYBzkrfke+pLKZV 7Lu4FqKmcvrYDjJUqE99XfNIzeU0rzzuuzoMsBhc+LUblhloLqdVeUCjk762Z6f5+XPSVE6VoYaX 9hQlSErPnx81UPwz1PLwlTr2ep4p6YWfH9u9m/cC9GHTSnON9aUPzTTTpz73AiPWSk4rrbTS1/7y oMWbd/vYpPRDicsLlMptR/RW912Mk1grfWuumT70pfFuiVd31eNWWulT35rvr0RYlCLUSivNNNe3 vvZHKzspykdo67MUCwfn9FOm3XlfsWf3yn5qprk+Nd4FzCov7eErdez1PF3Sa35+bPdu5xaTw5Us dNsu4EA6vmC85bPJshPXjYq5Znn/hsWnjnJzCfPjb9xGslChpPSaS/fVcu19LdZKclY9+tGjRApO nXlj51Y6vgW3Dks4XdLzPz/cgxDCjX5CCLgHHdMAvCKEcKsHLIuPIWLENG5gseK8t8hmkhYs84Xb EUK4RahQaTG1NKJOhHvQMQ3AK/qEAHhFCAHwihAC4BUhBMArQgiAV4QQAK8IIQBeEUIAvCKEAHhF CAHwihAC4BUhBMCr/w/kQ++Tupw1eQAAACV0RVh0ZGF0ZTpjcmVhdGUAMjAxNi0wNi0yN1QwMDox ODozMSswMjowMOw5PQYAAAAldEVYdGRhdGU6bW9kaWZ5ADIwMTYtMDYtMjdUMDA6MTg6MzErMDI6 MDCdZIW6AAAAFHRFWHRwZGY6VmVyc2lvbgBQREYtMS41IAVcCzkAAAAASUVORK5CYII=" />
</svg>